<?xml version="1.0" encoding="utf-8"?>
<!-- Generator: Adobe Illustrator 17.1.0, SVG Export Plug-In . SVG Version: 6.00 Build 0)  -->
<!DOCTYPE svg PUBLIC "-//W3C//DTD SVG 1.1//EN" "http://www.w3.org/Graphics/SVG/1.1/DTD/svg11.dtd">
<svg version="1.1" id="Layer_1" xmlns="http://www.w3.org/2000/svg" xmlns:xlink="http://www.w3.org/1999/xlink" x="0px" y="0px"
	 viewBox="0 0 166 42" style="enable-background:new 0 0 166 42;" xml:space="preserve">
<style type="text/css">
	.st0{fill:#222428;}
	.st1{clip-path:url(#SVGID_2_);fill:#3362A3;}
	.st2{clip-path:url(#SVGID_2_);fill:#3363A4;}
	.st3{clip-path:url(#SVGID_2_);fill:#3464A4;}
	.st4{clip-path:url(#SVGID_2_);fill:#3465A5;}
	.st5{clip-path:url(#SVGID_2_);fill:#3466A6;}
	.st6{clip-path:url(#SVGID_2_);fill:#3567A6;}
	.st7{clip-path:url(#SVGID_2_);fill:#3568A7;}
	.st8{clip-path:url(#SVGID_2_);fill:#3569A8;}
	.st9{clip-path:url(#SVGID_2_);fill:#366AA8;}
	.st10{clip-path:url(#SVGID_2_);fill:#366BA9;}
	.st11{clip-path:url(#SVGID_2_);fill:#366CAA;}
	.st12{clip-path:url(#SVGID_2_);fill:#376DAA;}
	.st13{clip-path:url(#SVGID_2_);fill:#376EAB;}
	.st14{clip-path:url(#SVGID_2_);fill:#386FAB;}
	.st15{clip-path:url(#SVGID_2_);fill:#3870AC;}
	.st16{clip-path:url(#SVGID_2_);fill:#3871AD;}
	.st17{clip-path:url(#SVGID_2_);fill:#3972AD;}
	.st18{clip-path:url(#SVGID_2_);fill:#3973AE;}
	.st19{clip-path:url(#SVGID_2_);fill:#3974AF;}
	.st20{clip-path:url(#SVGID_2_);fill:#3A75AF;}
	.st21{clip-path:url(#SVGID_2_);fill:#3A76B0;}
	.st22{clip-path:url(#SVGID_2_);fill:#3A77B1;}
	.st23{clip-path:url(#SVGID_2_);fill:#3B78B1;}
	.st24{clip-path:url(#SVGID_2_);fill:#3B79B2;}
	.st25{clip-path:url(#SVGID_2_);fill:#3B7AB3;}
	.st26{clip-path:url(#SVGID_2_);fill:#3C7BB3;}
	.st27{clip-path:url(#SVGID_2_);fill:#3C7CB4;}
	.st28{clip-path:url(#SVGID_2_);fill:#3C7DB5;}
	.st29{clip-path:url(#SVGID_2_);fill:#3D7EB5;}
	.st30{clip-path:url(#SVGID_2_);fill:#3D7FB6;}
	.st31{clip-path:url(#SVGID_2_);fill:#3D80B7;}
	.st32{clip-path:url(#SVGID_2_);fill:#3E81B7;}
	.st33{clip-path:url(#SVGID_2_);fill:#3E82B8;}
	.st34{clip-path:url(#SVGID_2_);fill:#3E83B9;}
	.st35{clip-path:url(#SVGID_2_);fill:#3F84B9;}
	.st36{clip-path:url(#SVGID_2_);fill:#3F85BA;}
	.st37{clip-path:url(#SVGID_2_);fill:#3F86BB;}
	.st38{clip-path:url(#SVGID_2_);fill:#4087BB;}
	.st39{clip-path:url(#SVGID_2_);fill:#4089BC;}
	.st40{clip-path:url(#SVGID_2_);fill:#418ABC;}
	.st41{clip-path:url(#SVGID_2_);fill:#418BBD;}
	.st42{clip-path:url(#SVGID_2_);fill:#418CBE;}
	.st43{clip-path:url(#SVGID_2_);fill:#428DBE;}
	.st44{clip-path:url(#SVGID_2_);fill:#428EBF;}
	.st45{clip-path:url(#SVGID_2_);fill:#428FC0;}
	.st46{clip-path:url(#SVGID_2_);fill:#4390C0;}
	.st47{clip-path:url(#SVGID_2_);fill:#4391C1;}
	.st48{clip-path:url(#SVGID_2_);fill:#4392C2;}
	.st49{clip-path:url(#SVGID_2_);fill:#4493C2;}
	.st50{clip-path:url(#SVGID_2_);fill:#4494C3;}
	.st51{clip-path:url(#SVGID_2_);fill:#4495C4;}
	.st52{clip-path:url(#SVGID_2_);fill:#4596C4;}
	.st53{clip-path:url(#SVGID_2_);fill:#4597C5;}
	.st54{clip-path:url(#SVGID_2_);fill:#4598C6;}
	.st55{clip-path:url(#SVGID_2_);fill:#4699C6;}
	.st56{clip-path:url(#SVGID_2_);fill:#469AC7;}
	.st57{clip-path:url(#SVGID_2_);fill:#469BC8;}
	.st58{clip-path:url(#SVGID_2_);fill:#479CC8;}
	.st59{clip-path:url(#SVGID_2_);fill:#479DC9;}
	.st60{clip-path:url(#SVGID_2_);fill:#479ECA;}
	.st61{clip-path:url(#SVGID_2_);fill:#489FCA;}
	.st62{clip-path:url(#SVGID_2_);fill:#48A0CB;}
	.st63{clip-path:url(#SVGID_2_);fill:#48A1CC;}
	.st64{clip-path:url(#SVGID_2_);fill:#49A2CC;}
	.st65{clip-path:url(#SVGID_2_);fill:#49A3CD;}
	.st66{clip-path:url(#SVGID_2_);fill:#4AA4CD;}
	.st67{clip-path:url(#SVGID_2_);fill:#4AA5CE;}
	.st68{clip-path:url(#SVGID_2_);fill:#4AA6CF;}
	.st69{clip-path:url(#SVGID_2_);fill:#4BA7CF;}
	.st70{clip-path:url(#SVGID_2_);fill:#4BA8D0;}
	.st71{clip-path:url(#SVGID_2_);fill:#4BA9D1;}
	.st72{clip-path:url(#SVGID_2_);fill:#4CAAD1;}
	.st73{clip-path:url(#SVGID_2_);fill:#4CABD2;}
	.st74{clip-path:url(#SVGID_2_);fill:#4CACD3;}
	.st75{clip-path:url(#SVGID_2_);fill:#4DADD3;}
	.st76{clip-path:url(#SVGID_2_);fill:#4DAED4;}
	.st77{fill:#FFFFFF;}
	.st78{fill:#4AACD3;}
	.st79{fill:#F9FAFB;}
	.st80{fill:#48ABD2;}
	.st81{fill:#F1F1F2;}
	.st82{clip-path:url(#SVGID_4_);}
	.st83{fill:#B6B3B9;}
	.st84{fill:#E75858;}
	.st85{clip-path:url(#SVGID_6_);fill:#1D1D1E;}
	.st86{clip-path:url(#SVGID_6_);fill:#1E1E1F;}
	.st87{clip-path:url(#SVGID_6_);fill:#1F2021;}
	.st88{clip-path:url(#SVGID_6_);fill:#212122;}
	.st89{clip-path:url(#SVGID_6_);fill:#222224;}
	.st90{clip-path:url(#SVGID_6_);fill:#232325;}
	.st91{clip-path:url(#SVGID_6_);fill:#242526;}
	.st92{clip-path:url(#SVGID_6_);fill:#252628;}
	.st93{clip-path:url(#SVGID_6_);fill:#262729;}
	.st94{clip-path:url(#SVGID_6_);fill:#28282A;}
	.st95{clip-path:url(#SVGID_6_);fill:#29292B;}
	.st96{clip-path:url(#SVGID_6_);fill:#2A2A2D;}
	.st97{clip-path:url(#SVGID_6_);fill:#2B2C2E;}
	.st98{clip-path:url(#SVGID_6_);fill:#2C2D2F;}
	.st99{clip-path:url(#SVGID_6_);fill:#2D2E30;}
	.st100{clip-path:url(#SVGID_6_);fill:#2E2F32;}
	.st101{clip-path:url(#SVGID_6_);fill:#2F3033;}
	.st102{clip-path:url(#SVGID_6_);fill:#303134;}
	.st103{clip-path:url(#SVGID_6_);fill:#313235;}
	.st104{clip-path:url(#SVGID_6_);fill:#323336;}
	.st105{clip-path:url(#SVGID_6_);fill:#333438;}
	.st106{clip-path:url(#SVGID_6_);fill:#343539;}
	.st107{clip-path:url(#SVGID_6_);fill:#35363A;}
	.st108{clip-path:url(#SVGID_6_);fill:#36373B;}
	.st109{clip-path:url(#SVGID_6_);fill:#37383C;}
	.st110{clip-path:url(#SVGID_6_);fill:#38393D;}
	.st111{clip-path:url(#SVGID_6_);fill:#393A3E;}
	.st112{clip-path:url(#SVGID_6_);fill:#3A3B3F;}
	.st113{clip-path:url(#SVGID_6_);fill:#3B3C40;}
	.st114{clip-path:url(#SVGID_6_);fill:#3B3D41;}
	.st115{clip-path:url(#SVGID_6_);fill:#3C3E42;}
	.st116{clip-path:url(#SVGID_6_);fill:#3D3F43;}
	.st117{clip-path:url(#SVGID_6_);fill:#3E3F44;}
	.st118{clip-path:url(#SVGID_6_);fill:#3F4045;}
	.st119{clip-path:url(#SVGID_6_);fill:#3F4145;}
	.st120{clip-path:url(#SVGID_6_);fill:#404246;}
	.st121{clip-path:url(#SVGID_6_);fill:#414247;}
	.st122{clip-path:url(#SVGID_6_);fill:#414348;}
	.st123{clip-path:url(#SVGID_6_);fill:#424448;}
	.st124{clip-path:url(#SVGID_6_);fill:#434449;}
	.st125{clip-path:url(#SVGID_6_);fill:#43454A;}
	.st126{clip-path:url(#SVGID_6_);fill:#44454A;}
	.st127{clip-path:url(#SVGID_6_);fill:#44464B;}
	.st128{clip-path:url(#SVGID_6_);fill:#45474C;}
	.st129{clip-path:url(#SVGID_6_);fill:#44464A;}
	.st130{clip-path:url(#SVGID_6_);fill:#424449;}
	.st131{clip-path:url(#SVGID_6_);fill:#414347;}
	.st132{clip-path:url(#SVGID_6_);fill:#404247;}
	.st133{clip-path:url(#SVGID_6_);fill:#404146;}
	.st134{clip-path:url(#SVGID_6_);fill:#3E4044;}
	.st135{clip-path:url(#SVGID_6_);fill:#3C3D41;}
	.st136{clip-path:url(#SVGID_6_);fill:#383A3D;}
	.st137{clip-path:url(#SVGID_6_);fill:#37393C;}
	.st138{clip-path:url(#SVGID_6_);fill:#36383B;}
	.st139{clip-path:url(#SVGID_6_);fill:#35373A;}
	.st140{clip-path:url(#SVGID_6_);fill:#353639;}
	.st141{clip-path:url(#SVGID_6_);fill:#343538;}
	.st142{clip-path:url(#SVGID_6_);fill:#333437;}
	.st143{clip-path:url(#SVGID_6_);fill:#2F3032;}
	.st144{clip-path:url(#SVGID_6_);fill:#2E2F31;}
	.st145{clip-path:url(#SVGID_6_);fill:#2B2B2E;}
	.st146{clip-path:url(#SVGID_6_);fill:#29292C;}
	.st147{clip-path:url(#SVGID_6_);fill:#272729;}
	.st148{clip-path:url(#SVGID_6_);fill:#262628;}
	.st149{clip-path:url(#SVGID_6_);fill:#252527;}
	.st150{clip-path:url(#SVGID_6_);fill:#242425;}
	.st151{clip-path:url(#SVGID_6_);fill:#222324;}
	.st152{clip-path:url(#SVGID_6_);fill:#212223;}
	.st153{clip-path:url(#SVGID_6_);fill:#202022;}
	.st154{clip-path:url(#SVGID_6_);fill:#1F1F21;}
	.st155{fill:#090909;}
	.st156{fill:#333333;}
	.st157{fill:#C3C1C6;}
	.st158{opacity:0.8;}
	.st159{clip-path:url(#SVGID_8_);}
	.st160{clip-path:url(#SVGID_10_);fill:#1D1D1E;}
	.st161{clip-path:url(#SVGID_10_);fill:#1E1E1F;}
	.st162{clip-path:url(#SVGID_10_);fill:#1F2021;}
	.st163{clip-path:url(#SVGID_10_);fill:#212122;}
	.st164{clip-path:url(#SVGID_10_);fill:#222224;}
	.st165{clip-path:url(#SVGID_10_);fill:#232325;}
	.st166{clip-path:url(#SVGID_10_);fill:#242526;}
	.st167{clip-path:url(#SVGID_10_);fill:#252628;}
	.st168{clip-path:url(#SVGID_10_);fill:#262729;}
	.st169{clip-path:url(#SVGID_10_);fill:#28282A;}
	.st170{clip-path:url(#SVGID_10_);fill:#29292B;}
	.st171{clip-path:url(#SVGID_10_);fill:#2A2A2D;}
	.st172{clip-path:url(#SVGID_10_);fill:#2B2C2E;}
	.st173{clip-path:url(#SVGID_10_);fill:#2C2D2F;}
	.st174{clip-path:url(#SVGID_10_);fill:#2D2E30;}
	.st175{clip-path:url(#SVGID_10_);fill:#2E2F32;}
	.st176{clip-path:url(#SVGID_10_);fill:#2F3033;}
	.st177{clip-path:url(#SVGID_10_);fill:#303134;}
	.st178{clip-path:url(#SVGID_10_);fill:#313235;}
	.st179{clip-path:url(#SVGID_10_);fill:#323336;}
	.st180{clip-path:url(#SVGID_10_);fill:#333438;}
	.st181{clip-path:url(#SVGID_10_);fill:#343539;}
	.st182{clip-path:url(#SVGID_10_);fill:#35363A;}
	.st183{clip-path:url(#SVGID_10_);fill:#36373B;}
	.st184{clip-path:url(#SVGID_10_);fill:#37383C;}
	.st185{clip-path:url(#SVGID_10_);fill:#38393D;}
	.st186{clip-path:url(#SVGID_10_);fill:#393A3E;}
	.st187{clip-path:url(#SVGID_10_);fill:#3A3B3F;}
	.st188{clip-path:url(#SVGID_10_);fill:#3B3C40;}
	.st189{clip-path:url(#SVGID_10_);fill:#3B3D41;}
	.st190{clip-path:url(#SVGID_10_);fill:#3C3E42;}
	.st191{clip-path:url(#SVGID_10_);fill:#3D3F43;}
	.st192{clip-path:url(#SVGID_10_);fill:#3E3F44;}
	.st193{clip-path:url(#SVGID_10_);fill:#3F4045;}
	.st194{clip-path:url(#SVGID_10_);fill:#3F4145;}
	.st195{clip-path:url(#SVGID_10_);fill:#404246;}
	.st196{clip-path:url(#SVGID_10_);fill:#414247;}
	.st197{clip-path:url(#SVGID_10_);fill:#414348;}
	.st198{clip-path:url(#SVGID_10_);fill:#424448;}
	.st199{clip-path:url(#SVGID_10_);fill:#434449;}
	.st200{clip-path:url(#SVGID_10_);fill:#43454A;}
	.st201{clip-path:url(#SVGID_10_);fill:#44454A;}
	.st202{clip-path:url(#SVGID_10_);fill:#44464B;}
	.st203{clip-path:url(#SVGID_10_);fill:#45474C;}
	.st204{clip-path:url(#SVGID_10_);fill:#44464A;}
	.st205{clip-path:url(#SVGID_10_);fill:#424449;}
	.st206{clip-path:url(#SVGID_10_);fill:#414347;}
	.st207{clip-path:url(#SVGID_10_);fill:#404247;}
	.st208{clip-path:url(#SVGID_10_);fill:#404146;}
	.st209{clip-path:url(#SVGID_10_);fill:#3E4044;}
	.st210{clip-path:url(#SVGID_10_);fill:#3C3D41;}
	.st211{clip-path:url(#SVGID_10_);fill:#383A3D;}
	.st212{clip-path:url(#SVGID_10_);fill:#37393C;}
	.st213{clip-path:url(#SVGID_10_);fill:#36383B;}
	.st214{clip-path:url(#SVGID_10_);fill:#35373A;}
	.st215{clip-path:url(#SVGID_10_);fill:#353639;}
	.st216{clip-path:url(#SVGID_10_);fill:#343538;}
	.st217{clip-path:url(#SVGID_10_);fill:#333437;}
	.st218{clip-path:url(#SVGID_10_);fill:#2F3032;}
	.st219{clip-path:url(#SVGID_10_);fill:#2E2F31;}
	.st220{clip-path:url(#SVGID_10_);fill:#2B2B2E;}
	.st221{clip-path:url(#SVGID_10_);fill:#29292C;}
	.st222{clip-path:url(#SVGID_10_);fill:#272729;}
	.st223{clip-path:url(#SVGID_10_);fill:#262628;}
	.st224{clip-path:url(#SVGID_10_);fill:#252527;}
	.st225{clip-path:url(#SVGID_10_);fill:#242425;}
	.st226{clip-path:url(#SVGID_10_);fill:#222324;}
	.st227{clip-path:url(#SVGID_10_);fill:#212223;}
	.st228{clip-path:url(#SVGID_10_);fill:#202022;}
	.st229{clip-path:url(#SVGID_10_);fill:#1F1F21;}
	.st230{clip-path:url(#SVGID_12_);}
	.st231{fill:#CBCFD3;}
	.st232{fill:#31363D;}
	.st233{fill:none;}
	.st234{fill:#212221;}
	.st235{opacity:0.5;}
	.st236{opacity:0.9;}
	.st237{fill:#F9F9F9;}
	.st238{fill:#47AAD1;}
	.st239{clip-path:url(#SVGID_14_);}
	.st240{fill:url(#SVGID_15_);}
	.st241{opacity:0.8;fill:#222428;}
	.st242{clip-path:url(#SVGID_19_);}
	.st243{fill:url(#SVGID_20_);}
	.st244{clip-path:url(#SVGID_22_);}
	.st245{clip-path:url(#SVGID_22_);fill:#CBCFD3;}
	.st246{opacity:0.5;fill:#212221;}
	.st247{fill:none;stroke:#F9FAFB;stroke-width:2;stroke-linecap:round;stroke-miterlimit:10;}
	.st248{opacity:0.9;fill:#222428;}
	.st249{fill:none;stroke:#F9F9F9;stroke-width:2;stroke-miterlimit:10;}
	.st250{fill:none;stroke:#31363D;stroke-width:4;stroke-linecap:round;stroke-linejoin:round;}
	.st251{fill:none;stroke:#31363D;stroke-width:4;stroke-linecap:round;stroke-linejoin:round;stroke-dasharray:0,10.2597;}
	.st252{fill:none;stroke:#31363D;stroke-width:4;stroke-linecap:round;stroke-linejoin:round;stroke-dasharray:0,9.7789;}
	.st253{fill:none;stroke:#FFFFFF;stroke-width:2;stroke-miterlimit:10;}
	.st254{clip-path:url(#SVGID_24_);}
	.st255{clip-path:url(#SVGID_26_);fill:#1D1D1E;}
	.st256{clip-path:url(#SVGID_26_);fill:#1E1E1F;}
	.st257{clip-path:url(#SVGID_26_);fill:#1F2021;}
	.st258{clip-path:url(#SVGID_26_);fill:#212122;}
	.st259{clip-path:url(#SVGID_26_);fill:#222224;}
	.st260{clip-path:url(#SVGID_26_);fill:#232325;}
	.st261{clip-path:url(#SVGID_26_);fill:#242526;}
	.st262{clip-path:url(#SVGID_26_);fill:#252628;}
	.st263{clip-path:url(#SVGID_26_);fill:#262729;}
	.st264{clip-path:url(#SVGID_26_);fill:#28282A;}
	.st265{clip-path:url(#SVGID_26_);fill:#29292B;}
	.st266{clip-path:url(#SVGID_26_);fill:#2A2A2D;}
	.st267{clip-path:url(#SVGID_26_);fill:#2B2C2E;}
	.st268{clip-path:url(#SVGID_26_);fill:#2C2D2F;}
	.st269{clip-path:url(#SVGID_26_);fill:#2D2E30;}
	.st270{clip-path:url(#SVGID_26_);fill:#2E2F32;}
	.st271{clip-path:url(#SVGID_26_);fill:#2F3033;}
	.st272{clip-path:url(#SVGID_26_);fill:#303134;}
	.st273{clip-path:url(#SVGID_26_);fill:#313235;}
	.st274{clip-path:url(#SVGID_26_);fill:#323336;}
	.st275{clip-path:url(#SVGID_26_);fill:#333438;}
	.st276{clip-path:url(#SVGID_26_);fill:#343539;}
	.st277{clip-path:url(#SVGID_26_);fill:#35363A;}
	.st278{clip-path:url(#SVGID_26_);fill:#36373B;}
	.st279{clip-path:url(#SVGID_26_);fill:#37383C;}
	.st280{clip-path:url(#SVGID_26_);fill:#38393D;}
	.st281{clip-path:url(#SVGID_26_);fill:#393A3E;}
	.st282{clip-path:url(#SVGID_26_);fill:#3A3B3F;}
	.st283{clip-path:url(#SVGID_26_);fill:#3B3C40;}
	.st284{clip-path:url(#SVGID_26_);fill:#3B3D41;}
	.st285{clip-path:url(#SVGID_26_);fill:#3C3E42;}
	.st286{clip-path:url(#SVGID_26_);fill:#3D3F43;}
	.st287{clip-path:url(#SVGID_26_);fill:#3E3F44;}
	.st288{clip-path:url(#SVGID_26_);fill:#3F4045;}
	.st289{clip-path:url(#SVGID_26_);fill:#3F4145;}
	.st290{clip-path:url(#SVGID_26_);fill:#404246;}
	.st291{clip-path:url(#SVGID_26_);fill:#414247;}
	.st292{clip-path:url(#SVGID_26_);fill:#414348;}
	.st293{clip-path:url(#SVGID_26_);fill:#424448;}
	.st294{clip-path:url(#SVGID_26_);fill:#434449;}
	.st295{clip-path:url(#SVGID_26_);fill:#43454A;}
	.st296{clip-path:url(#SVGID_26_);fill:#44454A;}
	.st297{clip-path:url(#SVGID_26_);fill:#44464B;}
	.st298{clip-path:url(#SVGID_26_);fill:#45474C;}
	.st299{clip-path:url(#SVGID_26_);fill:#44464A;}
	.st300{clip-path:url(#SVGID_26_);fill:#424449;}
	.st301{clip-path:url(#SVGID_26_);fill:#414347;}
	.st302{clip-path:url(#SVGID_26_);fill:#404247;}
	.st303{clip-path:url(#SVGID_26_);fill:#404146;}
	.st304{clip-path:url(#SVGID_26_);fill:#3E4044;}
	.st305{clip-path:url(#SVGID_26_);fill:#3C3D41;}
	.st306{clip-path:url(#SVGID_26_);fill:#383A3D;}
	.st307{clip-path:url(#SVGID_26_);fill:#37393C;}
	.st308{clip-path:url(#SVGID_26_);fill:#36383B;}
	.st309{clip-path:url(#SVGID_26_);fill:#35373A;}
	.st310{clip-path:url(#SVGID_26_);fill:#353639;}
	.st311{clip-path:url(#SVGID_26_);fill:#343538;}
	.st312{clip-path:url(#SVGID_26_);fill:#333437;}
	.st313{clip-path:url(#SVGID_26_);fill:#2F3032;}
	.st314{clip-path:url(#SVGID_26_);fill:#2E2F31;}
	.st315{clip-path:url(#SVGID_26_);fill:#2B2B2E;}
	.st316{clip-path:url(#SVGID_26_);fill:#29292C;}
	.st317{clip-path:url(#SVGID_26_);fill:#272729;}
	.st318{clip-path:url(#SVGID_26_);fill:#262628;}
	.st319{clip-path:url(#SVGID_26_);fill:#252527;}
	.st320{clip-path:url(#SVGID_26_);fill:#242425;}
	.st321{clip-path:url(#SVGID_26_);fill:#222324;}
	.st322{clip-path:url(#SVGID_26_);fill:#212223;}
	.st323{clip-path:url(#SVGID_26_);fill:#202022;}
	.st324{clip-path:url(#SVGID_26_);fill:#1F1F21;}
	.st325{clip-path:url(#SVGID_30_);}
	.st326{clip-path:url(#SVGID_32_);fill:#1D1D1E;}
	.st327{clip-path:url(#SVGID_32_);fill:#1E1E1F;}
	.st328{clip-path:url(#SVGID_32_);fill:#1F2021;}
	.st329{clip-path:url(#SVGID_32_);fill:#212122;}
	.st330{clip-path:url(#SVGID_32_);fill:#222224;}
	.st331{clip-path:url(#SVGID_32_);fill:#232325;}
	.st332{clip-path:url(#SVGID_32_);fill:#242526;}
	.st333{clip-path:url(#SVGID_32_);fill:#252628;}
	.st334{clip-path:url(#SVGID_32_);fill:#262729;}
	.st335{clip-path:url(#SVGID_32_);fill:#28282A;}
	.st336{clip-path:url(#SVGID_32_);fill:#29292B;}
	.st337{clip-path:url(#SVGID_32_);fill:#2A2A2D;}
	.st338{clip-path:url(#SVGID_32_);fill:#2B2C2E;}
	.st339{clip-path:url(#SVGID_32_);fill:#2C2D2F;}
	.st340{clip-path:url(#SVGID_32_);fill:#2D2E30;}
	.st341{clip-path:url(#SVGID_32_);fill:#2E2F32;}
	.st342{clip-path:url(#SVGID_32_);fill:#2F3033;}
	.st343{clip-path:url(#SVGID_32_);fill:#303134;}
	.st344{clip-path:url(#SVGID_32_);fill:#313235;}
	.st345{clip-path:url(#SVGID_32_);fill:#323336;}
	.st346{clip-path:url(#SVGID_32_);fill:#333438;}
	.st347{clip-path:url(#SVGID_32_);fill:#343539;}
	.st348{clip-path:url(#SVGID_32_);fill:#35363A;}
	.st349{clip-path:url(#SVGID_32_);fill:#36373B;}
	.st350{clip-path:url(#SVGID_32_);fill:#37383C;}
	.st351{clip-path:url(#SVGID_32_);fill:#38393D;}
	.st352{clip-path:url(#SVGID_32_);fill:#393A3E;}
	.st353{clip-path:url(#SVGID_32_);fill:#3A3B3F;}
	.st354{clip-path:url(#SVGID_32_);fill:#3B3C40;}
	.st355{clip-path:url(#SVGID_32_);fill:#3B3D41;}
	.st356{clip-path:url(#SVGID_32_);fill:#3C3E42;}
	.st357{clip-path:url(#SVGID_32_);fill:#3D3F43;}
	.st358{clip-path:url(#SVGID_32_);fill:#3E3F44;}
	.st359{clip-path:url(#SVGID_32_);fill:#3F4045;}
	.st360{clip-path:url(#SVGID_32_);fill:#3F4145;}
	.st361{clip-path:url(#SVGID_32_);fill:#404246;}
	.st362{clip-path:url(#SVGID_32_);fill:#414247;}
	.st363{clip-path:url(#SVGID_32_);fill:#414348;}
	.st364{clip-path:url(#SVGID_32_);fill:#424448;}
	.st365{clip-path:url(#SVGID_32_);fill:#434449;}
	.st366{clip-path:url(#SVGID_32_);fill:#43454A;}
	.st367{clip-path:url(#SVGID_32_);fill:#44454A;}
	.st368{clip-path:url(#SVGID_32_);fill:#44464B;}
	.st369{clip-path:url(#SVGID_32_);fill:#45474C;}
	.st370{clip-path:url(#SVGID_32_);fill:#44464A;}
	.st371{clip-path:url(#SVGID_32_);fill:#424449;}
	.st372{clip-path:url(#SVGID_32_);fill:#414347;}
	.st373{clip-path:url(#SVGID_32_);fill:#404247;}
	.st374{clip-path:url(#SVGID_32_);fill:#404146;}
	.st375{clip-path:url(#SVGID_32_);fill:#3E4044;}
	.st376{clip-path:url(#SVGID_32_);fill:#3C3D41;}
	.st377{clip-path:url(#SVGID_32_);fill:#383A3D;}
	.st378{clip-path:url(#SVGID_32_);fill:#37393C;}
	.st379{clip-path:url(#SVGID_32_);fill:#36383B;}
	.st380{clip-path:url(#SVGID_32_);fill:#35373A;}
	.st381{clip-path:url(#SVGID_32_);fill:#353639;}
	.st382{clip-path:url(#SVGID_32_);fill:#343538;}
	.st383{clip-path:url(#SVGID_32_);fill:#333437;}
	.st384{clip-path:url(#SVGID_32_);fill:#2F3032;}
	.st385{clip-path:url(#SVGID_32_);fill:#2E2F31;}
	.st386{clip-path:url(#SVGID_32_);fill:#2B2B2E;}
	.st387{clip-path:url(#SVGID_32_);fill:#29292C;}
	.st388{clip-path:url(#SVGID_32_);fill:#272729;}
	.st389{clip-path:url(#SVGID_32_);fill:#262628;}
	.st390{clip-path:url(#SVGID_32_);fill:#252527;}
	.st391{clip-path:url(#SVGID_32_);fill:#242425;}
	.st392{clip-path:url(#SVGID_32_);fill:#222324;}
	.st393{clip-path:url(#SVGID_32_);fill:#212223;}
	.st394{clip-path:url(#SVGID_32_);fill:#202022;}
	.st395{clip-path:url(#SVGID_32_);fill:#1F1F21;}
	.st396{clip-path:url(#SVGID_34_);}
	.st397{fill:#CCCCCB;}
	.st398{fill:#CCCBCB;}
	.st399{fill:#FAFAFA;}
	.st400{clip-path:url(#SVGID_38_);fill:#3362A3;}
	.st401{clip-path:url(#SVGID_38_);fill:#3363A4;}
	.st402{clip-path:url(#SVGID_38_);fill:#3464A4;}
	.st403{clip-path:url(#SVGID_38_);fill:#3465A5;}
	.st404{clip-path:url(#SVGID_38_);fill:#3466A6;}
	.st405{clip-path:url(#SVGID_38_);fill:#3567A6;}
	.st406{clip-path:url(#SVGID_38_);fill:#3568A7;}
	.st407{clip-path:url(#SVGID_38_);fill:#3569A8;}
	.st408{clip-path:url(#SVGID_38_);fill:#366AA8;}
	.st409{clip-path:url(#SVGID_38_);fill:#366BA9;}
	.st410{clip-path:url(#SVGID_38_);fill:#366CAA;}
	.st411{clip-path:url(#SVGID_38_);fill:#376DAA;}
	.st412{clip-path:url(#SVGID_38_);fill:#376EAB;}
	.st413{clip-path:url(#SVGID_38_);fill:#386FAB;}
	.st414{clip-path:url(#SVGID_38_);fill:#3870AC;}
	.st415{clip-path:url(#SVGID_38_);fill:#3871AD;}
	.st416{clip-path:url(#SVGID_38_);fill:#3972AD;}
	.st417{clip-path:url(#SVGID_38_);fill:#3973AE;}
	.st418{clip-path:url(#SVGID_38_);fill:#3974AF;}
	.st419{clip-path:url(#SVGID_38_);fill:#3A75AF;}
	.st420{clip-path:url(#SVGID_38_);fill:#3A76B0;}
	.st421{clip-path:url(#SVGID_38_);fill:#3A77B1;}
	.st422{clip-path:url(#SVGID_38_);fill:#3B78B1;}
	.st423{clip-path:url(#SVGID_38_);fill:#3B79B2;}
	.st424{clip-path:url(#SVGID_38_);fill:#3B7AB3;}
	.st425{clip-path:url(#SVGID_38_);fill:#3C7BB3;}
	.st426{clip-path:url(#SVGID_38_);fill:#3C7CB4;}
	.st427{clip-path:url(#SVGID_38_);fill:#3C7DB5;}
	.st428{clip-path:url(#SVGID_38_);fill:#3D7EB5;}
	.st429{clip-path:url(#SVGID_38_);fill:#3D7FB6;}
	.st430{clip-path:url(#SVGID_38_);fill:#3D80B7;}
	.st431{clip-path:url(#SVGID_38_);fill:#3E81B7;}
	.st432{clip-path:url(#SVGID_38_);fill:#3E82B8;}
	.st433{clip-path:url(#SVGID_38_);fill:#3E83B9;}
	.st434{clip-path:url(#SVGID_38_);fill:#3F84B9;}
	.st435{clip-path:url(#SVGID_38_);fill:#3F85BA;}
	.st436{clip-path:url(#SVGID_38_);fill:#3F86BB;}
	.st437{clip-path:url(#SVGID_38_);fill:#4087BB;}
	.st438{clip-path:url(#SVGID_38_);fill:#4089BC;}
	.st439{clip-path:url(#SVGID_38_);fill:#418ABC;}
	.st440{clip-path:url(#SVGID_38_);fill:#418BBD;}
	.st441{clip-path:url(#SVGID_38_);fill:#418CBE;}
	.st442{clip-path:url(#SVGID_38_);fill:#428DBE;}
	.st443{clip-path:url(#SVGID_38_);fill:#428EBF;}
	.st444{clip-path:url(#SVGID_38_);fill:#428FC0;}
	.st445{clip-path:url(#SVGID_38_);fill:#4390C0;}
	.st446{clip-path:url(#SVGID_38_);fill:#4391C1;}
	.st447{clip-path:url(#SVGID_38_);fill:#4392C2;}
	.st448{clip-path:url(#SVGID_38_);fill:#4493C2;}
	.st449{clip-path:url(#SVGID_38_);fill:#4494C3;}
	.st450{clip-path:url(#SVGID_38_);fill:#4495C4;}
	.st451{clip-path:url(#SVGID_38_);fill:#4596C4;}
	.st452{clip-path:url(#SVGID_38_);fill:#4597C5;}
	.st453{clip-path:url(#SVGID_38_);fill:#4598C6;}
	.st454{clip-path:url(#SVGID_38_);fill:#4699C6;}
	.st455{clip-path:url(#SVGID_38_);fill:#469AC7;}
	.st456{clip-path:url(#SVGID_38_);fill:#469BC8;}
	.st457{clip-path:url(#SVGID_38_);fill:#479CC8;}
	.st458{clip-path:url(#SVGID_38_);fill:#479DC9;}
	.st459{clip-path:url(#SVGID_38_);fill:#479ECA;}
	.st460{clip-path:url(#SVGID_38_);fill:#489FCA;}
	.st461{clip-path:url(#SVGID_38_);fill:#48A0CB;}
	.st462{clip-path:url(#SVGID_38_);fill:#48A1CC;}
	.st463{clip-path:url(#SVGID_38_);fill:#49A2CC;}
	.st464{clip-path:url(#SVGID_38_);fill:#49A3CD;}
	.st465{clip-path:url(#SVGID_38_);fill:#4AA4CD;}
	.st466{clip-path:url(#SVGID_38_);fill:#4AA5CE;}
	.st467{clip-path:url(#SVGID_38_);fill:#4AA6CF;}
	.st468{clip-path:url(#SVGID_38_);fill:#4BA7CF;}
	.st469{clip-path:url(#SVGID_38_);fill:#4BA8D0;}
	.st470{clip-path:url(#SVGID_38_);fill:#4BA9D1;}
	.st471{clip-path:url(#SVGID_38_);fill:#4CAAD1;}
	.st472{clip-path:url(#SVGID_38_);fill:#4CABD2;}
	.st473{clip-path:url(#SVGID_38_);fill:#4CACD3;}
	.st474{clip-path:url(#SVGID_38_);fill:#4DADD3;}
	.st475{clip-path:url(#SVGID_38_);fill:#4DAED4;}
</style>
<g>
	<path class="st0" d="M73.1,11v19.6h-3L59,14.9v15.7h-2.7V11h3.1l10.9,15.6V11H73.1z"/>
	<path class="st0" d="M88.8,21.8V26c0,1.1-0.4,4.8-6.1,4.8c-5.7,0-6.2-3.7-6.2-4.8c0-2.9,2.6-4.6,6.9-4.6c0.9,0,1.8,0.1,2.7,0.2
		C86,19,84.9,18,82.1,18c-1.7,0-3.1,0.4-4,0.7v-2.3c1.1-0.4,2.6-0.8,4.4-0.8C86.5,15.6,88.8,17.8,88.8,21.8z M86.1,23.6
		c-0.7-0.1-1.6-0.2-2.6-0.2c-1.3,0-4.3,0.4-4.3,2.5c0,1.7,1.2,2.5,3.5,2.5c2.2,0,3.4-0.8,3.4-2.4V23.6z"/>
	<path class="st0" d="M104.6,15.9L99,30.5h-2.8l-5.6-14.6h2.9l4.1,11.4l4.1-11.4H104.6z"/>
	<path class="st0" d="M110.5,13.6h-2.9v-2.8h2.9V13.6z M107.7,15.9h2.7v14.6h-2.7V15.9z"/>
	<path class="st0" d="M126.1,20.2v10.9c0,2.3-1.1,5.1-6.4,5.1c-1.6,0-3-0.2-4.3-0.6v-2.6c1.2,0.4,2.6,0.6,4.1,0.6c4,0,4-1.6,4-2.6
		v-1.3c-1,0.3-2,0.4-3,0.4c-4.2,0-6.5-2.6-6.5-7.2c0-4.3,1.8-7.5,6.3-7.5C123.7,15.6,126.1,17.2,126.1,20.2z M123.4,20.1
		c0-0.5,0-2.1-3.2-2.1c-1.7,0-3.6,0.6-3.6,5.1c0,4.2,1.8,4.7,3.8,4.7c1,0,2-0.2,3-0.6V20.1z"/>
	<path class="st0" d="M132.9,13.6h-2.9v-2.8h2.9V13.6z M130.2,15.9h2.7v14.6h-2.7V15.9z"/>
	<path class="st0" d="M137.3,30.5V17.1c0.1-0.1,2.8-1.5,6.2-1.5c3.7,0,5.9,2.1,5.9,5.5v9.4h-2.7v-9.6c0-1.4-0.4-2.8-3.3-2.8
		c-1.3,0-2.5,0.2-3.4,0.5v11.9H137.3z"/>
	<path class="st0" d="M164.8,27.4v2.4c-1.4,0.6-3.1,1-5.2,1c-3.1,0-6.7-1.3-6.7-7.4c0-1.9,0-7.7,6.5-7.7c3.9,0,6.5,2.8,6.5,7.1
		c0,0.7,0,1.4-0.1,2h-10.1c0.4,3,2.2,3.7,4.1,3.7C161.9,28.5,163.6,28,164.8,27.4z M155.6,22.3h7.5c-0.1-1.7-0.9-4.3-3.8-4.3
		C156.9,18,155.8,19.2,155.6,22.3z"/>
</g>
<g>
	<g>
		<g>
			<defs>
				<circle id="SVGID_37_" cx="23.4" cy="21.7" r="19.3"/>
			</defs>
			<clipPath id="SVGID_2_">
				<use xlink:href="#SVGID_37_"  style="overflow:visible;"/>
			</clipPath>
			<rect x="4" y="3" class="st1" width="38" height="38"/>
			<circle class="st1" cx="23.4" cy="21.7" r="19.3"/>
			<circle class="st2" cx="23.4" cy="21.7" r="19.2"/>
			<circle class="st3" cx="23.4" cy="21.7" r="19.1"/>
			<circle class="st4" cx="23.4" cy="21.7" r="19"/>
			<circle class="st5" cx="23.4" cy="21.7" r="18.9"/>
			<circle class="st6" cx="23.4" cy="21.7" r="18.8"/>
			<circle class="st7" cx="23.4" cy="21.7" r="18.7"/>
			<circle class="st8" cx="23.4" cy="21.7" r="18.6"/>
			<circle class="st9" cx="23.4" cy="21.7" r="18.5"/>
			<circle class="st10" cx="23.4" cy="21.7" r="18.4"/>
			<circle class="st11" cx="23.4" cy="21.7" r="18.3"/>
			<circle class="st12" cx="23.4" cy="21.7" r="18.2"/>
			<circle class="st13" cx="23.4" cy="21.7" r="18.1"/>
			<circle class="st14" cx="23.4" cy="21.7" r="18"/>
			<circle class="st15" cx="23.4" cy="21.7" r="17.9"/>
			<circle class="st16" cx="23.4" cy="21.7" r="17.8"/>
			<circle class="st17" cx="23.4" cy="21.7" r="17.7"/>
			<circle class="st18" cx="23.4" cy="21.7" r="17.6"/>
			<circle class="st19" cx="23.4" cy="21.7" r="17.5"/>
			<circle class="st20" cx="23.4" cy="21.7" r="17.4"/>
			<circle class="st21" cx="23.4" cy="21.7" r="17.3"/>
			<circle class="st22" cx="23.4" cy="21.7" r="17.2"/>
			<circle class="st23" cx="23.4" cy="21.7" r="17.1"/>
			<circle class="st24" cx="23.4" cy="21.7" r="17"/>
			<circle class="st25" cx="23.4" cy="21.7" r="16.9"/>
			<circle class="st26" cx="23.4" cy="21.7" r="16.8"/>
			<circle class="st27" cx="23.4" cy="21.7" r="16.7"/>
			<circle class="st28" cx="23.4" cy="21.7" r="16.6"/>
			<circle class="st29" cx="23.4" cy="21.7" r="16.5"/>
			<circle class="st30" cx="23.4" cy="21.7" r="16.3"/>
			<circle class="st31" cx="23.4" cy="21.7" r="16.2"/>
			<circle class="st32" cx="23.4" cy="21.7" r="16.1"/>
			<circle class="st33" cx="23.4" cy="21.7" r="16"/>
			<circle class="st34" cx="23.4" cy="21.7" r="15.9"/>
			<circle class="st35" cx="23.4" cy="21.7" r="15.8"/>
			<circle class="st36" cx="23.4" cy="21.7" r="15.7"/>
			<circle class="st37" cx="23.4" cy="21.7" r="15.6"/>
			<circle class="st38" cx="23.4" cy="21.7" r="15.5"/>
			<circle class="st39" cx="23.4" cy="21.7" r="15.4"/>
			<circle class="st40" cx="23.4" cy="21.7" r="15.3"/>
			<circle class="st41" cx="23.4" cy="21.7" r="15.2"/>
			<circle class="st42" cx="23.4" cy="21.7" r="15.1"/>
			<circle class="st43" cx="23.4" cy="21.7" r="15"/>
			<circle class="st44" cx="23.4" cy="21.7" r="14.9"/>
			<circle class="st45" cx="23.4" cy="21.7" r="14.8"/>
			<circle class="st46" cx="23.4" cy="21.7" r="14.7"/>
			<circle class="st47" cx="23.4" cy="21.7" r="14.6"/>
			<circle class="st48" cx="23.4" cy="21.7" r="14.5"/>
			<circle class="st49" cx="23.4" cy="21.7" r="14.4"/>
			<circle class="st50" cx="23.4" cy="21.7" r="14.3"/>
			<circle class="st51" cx="23.4" cy="21.7" r="14.2"/>
			<circle class="st52" cx="23.4" cy="21.7" r="14.1"/>
			<circle class="st53" cx="23.4" cy="21.7" r="14"/>
			<circle class="st54" cx="23.4" cy="21.7" r="13.9"/>
			<circle class="st55" cx="23.4" cy="21.7" r="13.8"/>
			<circle class="st56" cx="23.4" cy="21.7" r="13.7"/>
			<circle class="st57" cx="23.4" cy="21.7" r="13.6"/>
			<circle class="st58" cx="23.4" cy="21.7" r="13.5"/>
			<circle class="st59" cx="23.4" cy="21.7" r="13.4"/>
			<circle class="st60" cx="23.4" cy="21.7" r="13.3"/>
			<circle class="st61" cx="23.4" cy="21.7" r="13.2"/>
			<circle class="st62" cx="23.4" cy="21.7" r="13.1"/>
			<circle class="st63" cx="23.4" cy="21.7" r="13"/>
			<circle class="st64" cx="23.4" cy="21.7" r="12.9"/>
			<circle class="st65" cx="23.4" cy="21.7" r="12.8"/>
			<circle class="st66" cx="23.4" cy="21.7" r="12.7"/>
			<circle class="st67" cx="23.4" cy="21.7" r="12.6"/>
			<circle class="st68" cx="23.4" cy="21.7" r="12.5"/>
			<circle class="st69" cx="23.4" cy="21.7" r="12.4"/>
			<circle class="st70" cx="23.4" cy="21.7" r="12.3"/>
			<circle class="st71" cx="23.4" cy="21.7" r="12.2"/>
			<circle class="st72" cx="23.4" cy="21.7" r="12.1"/>
			<circle class="st73" cx="23.4" cy="21.7" r="12"/>
			<circle class="st74" cx="23.4" cy="21.7" r="11.9"/>
			<circle class="st75" cx="23.4" cy="21.7" r="11.8"/>
			<circle class="st76" cx="23.4" cy="21.7" r="11.6"/>
		</g>
	</g>
	<g>
		<path class="st77" d="M43.4,21.4l-4.9-6l-0.8-7.7l-0.4-0.4c0,0-3.9-0.4-7.7-0.8l-0.2-0.2c-2.8-2.4-5.7-4.7-5.7-4.7h-0.6
			c0,0-2.9,2.4-5.8,4.7l-0.2,0.2C13.4,7,9.5,7.4,9.4,7.4L9,7.8c0,0-0.4,3.9-0.8,7.7l-0.2,0.2c-2.4,2.8-4.7,5.7-4.7,5.8V22
			c0,0,2.3,2.9,4.7,5.7L8.3,28C8.6,31.8,9,35.6,9,35.7l0.4,0.4c0,0,3.9,0.4,7.7,0.7l0.2,0.2c2.8,2.4,5.7,4.7,5.8,4.7l0.6,0l6-4.9
			l7.7-0.8l0.4-0.4c0,0,0.4-3.9,0.8-7.7l0.1-0.2c2.4-2.8,4.7-5.8,4.8-5.8L43.4,21.4z M36.8,8.3l0.7,6.7c-1-0.5-2.9-1.6-4.8-2.5
			l-0.1-0.2c-1-1.8-1.9-3.6-2.4-4.6C33,7.9,35.8,8.2,36.8,8.3z M26.8,30.8c-0.5-0.2-1.5-0.5-2.6-0.8c1-0.3,1.8-0.7,2.4-0.9
			c0.4-0.2,1.1-0.5,1.8-0.9c-0.6,1.1-1.2,2.1-1.5,2.6L26.8,30.8L26.8,30.8z M19.8,30.7c-0.3-0.5-0.9-1.5-1.5-2.6
			c0.7,0.4,1.4,0.7,1.8,0.9c0.5,0.2,1.4,0.6,2.4,0.9c-1.1,0.4-2.1,0.7-2.6,0.9l0-0.1L19.8,30.7z M10.9,22.6c0.6,0.7,1.5,1.9,2.5,3.1
			l0,0c0.1,1.6,0.3,3.3,0.4,4.2l-4.5-2.4C9.7,26.7,10.3,24.7,10.9,22.6z M10.9,20.9c-0.7-2.1-1.3-4.1-1.5-4.9
			c0.7-0.4,2.6-1.4,4.5-2.4c-0.1,1-0.3,2.6-0.4,4.2C12.5,19,11.5,20.2,10.9,20.9z M13.8,24.9c-1.1-1.3-2.2-2.6-2.6-3.1l0,0
			c0.4-0.5,1.5-1.8,2.6-3.1c0.2,0.6,0.6,1.9,1,3.1C14.4,23,14,24.3,13.8,24.9z M20,12.7c0.5,0.2,1.5,0.5,2.5,0.8
			c-1,0.3-1.9,0.7-2.4,0.9c-0.4,0.2-1.1,0.5-1.8,0.9c0.6-1.1,1.2-2.1,1.5-2.6L20,12.7L20,12.7z M27,12.7c0.3,0.5,0.9,1.5,1.5,2.6
			c-0.7-0.4-1.3-0.7-1.8-0.9c-0.5-0.2-1.4-0.6-2.4-0.9c1.1-0.4,2-0.7,2.5-0.8l0,0.1L27,12.7z M25.2,26.6c-0.2-0.1-0.6-0.2-1.1-0.4
			c0.4-0.1,0.8-0.3,1-0.4c0.2-0.1,0.4-0.2,0.7-0.4C25.6,25.9,25.4,26.3,25.2,26.6z M20.9,25.4c0.3,0.1,0.5,0.3,0.7,0.4
			c0.2,0.1,0.6,0.2,1,0.4c-0.5,0.2-0.9,0.3-1.1,0.4C21.4,26.3,21.2,25.9,20.9,25.4z M21.5,16.9c0.2,0.1,0.6,0.2,1.1,0.4
			c-0.4,0.2-0.8,0.3-1.1,0.4c-0.2,0.1-0.4,0.2-0.7,0.3C21.2,17.6,21.4,17.1,21.5,16.9z M25.9,18c-0.3-0.1-0.5-0.3-0.7-0.3
			c-0.2-0.1-0.6-0.3-1.1-0.4c0.5-0.2,0.9-0.3,1.1-0.4C25.4,17.1,25.6,17.6,25.9,18z M24.8,25.3c-0.2-0.1-0.5-0.2-0.9-0.3
			c0.3-0.1,0.7-0.2,0.8-0.3c0.2-0.1,0.4-0.2,0.6-0.3C25.1,24.8,24.8,25.1,24.8,25.3z M21.5,24.4c0.2,0.1,0.5,0.2,0.6,0.3
			c0.2,0.1,0.5,0.2,0.8,0.3c-0.4,0.1-0.8,0.2-0.9,0.3C21.9,25.1,21.7,24.8,21.5,24.4z M22,18.2c0.2,0.1,0.5,0.2,0.9,0.3
			c-0.3,0.1-0.7,0.2-0.9,0.3c-0.2,0.1-0.4,0.2-0.6,0.3C21.7,18.7,21.9,18.3,22,18.2z M25.3,19.1c-0.2-0.1-0.5-0.2-0.6-0.3
			c-0.2-0.1-0.5-0.2-0.9-0.3c0.4-0.1,0.8-0.3,0.9-0.3C24.8,18.3,25.1,18.7,25.3,19.1z M25.3,23.2c0.1-0.2,0.2-0.4,0.2-0.5
			c0.1-0.2,0.2-0.4,0.3-0.7c0.1,0.3,0.2,0.6,0.2,0.7C26,22.9,25.7,23,25.3,23.2z M24.4,24.4c-0.1,0-0.4-0.1-0.7-0.2
			c0.3-0.1,0.5-0.2,0.7-0.3c0.1-0.1,0.3-0.1,0.5-0.3C24.7,24,24.5,24.3,24.4,24.4z M21.9,23.7c0.2,0.1,0.4,0.2,0.5,0.3
			c0.2,0.1,0.4,0.2,0.7,0.3c-0.3,0.1-0.6,0.2-0.7,0.2C22.3,24.3,22.1,24,21.9,23.7z M20.7,22.8c0-0.1,0.1-0.4,0.2-0.7
			c0.1,0.3,0.2,0.5,0.3,0.7c0.1,0.1,0.1,0.3,0.2,0.5C21.1,23,20.8,22.9,20.7,22.8z M21.4,20.3c-0.1,0.2-0.2,0.4-0.2,0.5
			c-0.1,0.2-0.2,0.4-0.3,0.7c-0.1-0.3-0.2-0.6-0.2-0.7C20.8,20.6,21.1,20.5,21.4,20.3z M22.3,19c0.1,0,0.4,0.1,0.7,0.2
			c-0.3,0.1-0.5,0.2-0.7,0.3c-0.1,0.1-0.3,0.1-0.5,0.2C22.1,19.5,22.3,19.2,22.3,19z M24.8,19.8c-0.2-0.1-0.4-0.2-0.5-0.2
			c-0.2-0.1-0.4-0.2-0.7-0.3c0.3-0.1,0.6-0.2,0.7-0.2C24.5,19.2,24.7,19.5,24.8,19.8z M24.9,22.4c-0.1,0.1-0.2,0.3-0.3,0.5
			c-0.2,0.1-0.4,0.2-0.6,0.3c-0.1,0.1-0.4,0.2-0.7,0.2c-0.3-0.1-0.5-0.2-0.7-0.2c-0.1-0.1-0.3-0.2-0.6-0.3c-0.1-0.2-0.2-0.4-0.3-0.5
			c-0.1-0.1-0.2-0.4-0.2-0.7c0.1-0.3,0.2-0.5,0.2-0.7c0.1-0.1,0.2-0.3,0.3-0.5c0.2-0.1,0.4-0.2,0.5-0.3c0.1-0.1,0.4-0.2,0.7-0.2
			c0.3,0.1,0.5,0.2,0.7,0.2c0.1,0.1,0.3,0.2,0.5,0.3c0.1,0.2,0.2,0.4,0.3,0.5c0.1,0.1,0.2,0.4,0.2,0.7C25,22,24.9,22.3,24.9,22.4z
			 M25.2,21.9c0.1,0.3,0.2,0.5,0.2,0.6c-0.1,0.1-0.4,0.2-0.6,0.4c0.1-0.2,0.2-0.3,0.2-0.4C25,22.3,25.1,22.1,25.2,21.9z M24.5,23.1
			c-0.2,0.3-0.3,0.5-0.4,0.6c-0.1,0-0.3-0.1-0.6-0.2c0.2-0.1,0.4-0.2,0.5-0.2C24.2,23.3,24.3,23.2,24.5,23.1z M23.2,23.5
			c-0.3,0.1-0.5,0.2-0.6,0.2c-0.1-0.1-0.2-0.4-0.4-0.6c0.2,0.1,0.3,0.2,0.4,0.2C22.8,23.4,23,23.5,23.2,23.5z M22,22.9
			c-0.3-0.2-0.5-0.3-0.6-0.4c0-0.1,0.1-0.3,0.2-0.6c0.1,0.2,0.2,0.4,0.2,0.6C21.8,22.5,21.9,22.7,22,22.9z M21.6,21.6
			c-0.1-0.3-0.2-0.5-0.2-0.6c0.1-0.1,0.3-0.2,0.6-0.4c-0.1,0.2-0.2,0.3-0.2,0.4C21.7,21.2,21.7,21.4,21.6,21.6z M22.3,20.4
			c0.2-0.3,0.3-0.5,0.4-0.6c0.1,0,0.3,0.1,0.6,0.2c-0.2,0.1-0.4,0.2-0.6,0.2C22.6,20.2,22.4,20.3,22.3,20.4z M23.5,20
			c0.3-0.1,0.5-0.2,0.6-0.2c0.1,0.1,0.2,0.4,0.4,0.6c-0.2-0.1-0.3-0.2-0.4-0.2C24,20.1,23.7,20,23.5,20z M25,21
			c0-0.1-0.1-0.3-0.2-0.4c0.3,0.2,0.5,0.3,0.6,0.4c0,0.1-0.1,0.3-0.2,0.6C25.1,21.4,25,21.2,25,21z M24.7,20.5
			c-0.2-0.3-0.4-0.7-0.4-0.8c0,0,0,0,0.1,0c0.2,0.1,0.4,0.2,0.7,0.4c0.2,0.3,0.3,0.6,0.4,0.7c0,0,0,0,0,0.1
			C25.3,20.8,25,20.6,24.7,20.5z M24.1,19.7c-0.1,0-0.4,0.1-0.7,0.2c-0.3-0.1-0.7-0.2-0.7-0.2c0.2-0.1,0.5-0.2,0.7-0.3
			C23.7,19.5,23.9,19.6,24.1,19.7z M22.5,19.7C22.5,19.7,22.5,19.7,22.5,19.7c0,0.1-0.2,0.4-0.4,0.7c-0.3,0.2-0.7,0.4-0.8,0.4
			c0,0,0,0,0-0.1c0.1-0.2,0.2-0.4,0.4-0.7C22,19.9,22.3,19.8,22.5,19.7z M21.3,21c0,0.1,0.1,0.4,0.2,0.7c-0.1,0.3-0.2,0.7-0.2,0.7
			c-0.1-0.2-0.2-0.5-0.3-0.7C21.1,21.5,21.2,21.2,21.3,21z M21.4,22.6C21.3,22.6,21.3,22.6,21.4,22.6c0.1,0,0.4,0.2,0.7,0.4
			c0.2,0.3,0.4,0.7,0.4,0.8c0,0,0,0,0,0c-0.2-0.1-0.5-0.2-0.8-0.4C21.6,23.1,21.4,22.8,21.4,22.6z M22.6,23.8c0.1,0,0.4-0.1,0.7-0.2
			c0.3,0.1,0.7,0.2,0.7,0.2c-0.2,0.1-0.5,0.2-0.7,0.3C23.1,24,22.8,23.9,22.6,23.8z M24.3,23.8C24.3,23.8,24.2,23.8,24.3,23.8
			c0-0.1,0.2-0.4,0.4-0.7c0.3-0.2,0.7-0.4,0.8-0.4c0,0,0,0,0,0.1c-0.1,0.2-0.2,0.4-0.4,0.7C24.7,23.5,24.4,23.7,24.3,23.8z
			 M25.5,22.5c0-0.1-0.1-0.4-0.2-0.7c0.1-0.3,0.2-0.7,0.2-0.7c0.1,0.2,0.2,0.5,0.3,0.7C25.6,22,25.5,22.3,25.5,22.5z M25.6,20.8
			c-0.1-0.1-0.1-0.3-0.2-0.5c0.3,0.2,0.6,0.4,0.7,0.4c0,0.1-0.1,0.4-0.2,0.7C25.7,21.2,25.6,20.9,25.6,20.8z M25.2,20
			c-0.2-0.3-0.4-0.6-0.5-0.8c0.2,0.1,0.5,0.3,0.9,0.4c0.2,0.3,0.3,0.6,0.4,0.9C25.8,20.3,25.5,20.1,25.2,20z M24.2,18.9
			c-0.2,0.1-0.5,0.2-0.8,0.3c-0.3-0.1-0.6-0.2-0.8-0.3c0.2-0.1,0.5-0.2,0.8-0.3C23.7,18.7,23.9,18.8,24.2,18.9z M22.1,19.1
			c-0.1,0.2-0.3,0.5-0.5,0.8c-0.3,0.2-0.6,0.4-0.8,0.5c0.1-0.2,0.3-0.5,0.4-0.9C21.5,19.4,21.8,19.2,22.1,19.1z M20.4,20.4
			c-0.1,0.2-0.2,0.5-0.3,0.9c-0.1-0.4-0.2-0.8-0.3-0.9c0.2-0.1,0.5-0.3,0.9-0.5C20.6,20.1,20.5,20.3,20.4,20.4z M20.5,20.9
			c0.1,0.2,0.2,0.5,0.3,0.8c-0.1,0.3-0.2,0.6-0.3,0.8c-0.1-0.2-0.2-0.5-0.3-0.8C20.4,21.5,20.5,21.2,20.5,20.9z M20.4,23
			c0.1,0.2,0.2,0.4,0.3,0.6c-0.4-0.2-0.8-0.4-0.9-0.5c0.1-0.2,0.2-0.5,0.3-0.9C20.2,22.5,20.3,22.9,20.4,23z M20.8,23.1
			c0.2,0.1,0.5,0.3,0.8,0.5c0.2,0.3,0.4,0.6,0.5,0.8c-0.2-0.1-0.5-0.3-0.9-0.5C21,23.6,20.9,23.3,20.8,23.1z M22.6,24.6
			c0.2-0.1,0.5-0.2,0.8-0.3c0.3,0.1,0.6,0.2,0.8,0.3c-0.2,0.1-0.5,0.2-0.8,0.3C23.1,24.8,22.8,24.7,22.6,24.6z M24.7,24.4
			c0.1-0.2,0.3-0.5,0.5-0.8c0.3-0.2,0.6-0.4,0.8-0.5c-0.1,0.2-0.3,0.5-0.4,0.9C25.2,24.1,24.9,24.3,24.7,24.4z M26.3,23
			c0.1-0.2,0.2-0.5,0.3-0.9c0.1,0.4,0.2,0.8,0.3,0.9c-0.2,0.1-0.5,0.3-0.9,0.5C26.1,23.4,26.2,23.2,26.3,23z M26.2,22.5
			c-0.1-0.2-0.2-0.5-0.3-0.8c0.1-0.3,0.2-0.6,0.3-0.8c0.1,0.2,0.2,0.5,0.3,0.8C26.4,22,26.3,22.3,26.2,22.5z M26.3,20.4
			c-0.1-0.2-0.2-0.4-0.3-0.6c0.4,0.2,0.8,0.4,0.9,0.5c-0.1,0.2-0.2,0.5-0.3,0.9C26.5,20.9,26.4,20.6,26.3,20.4z M25.8,19.4
			c-0.2-0.4-0.5-0.9-0.7-1.2c0.3,0.1,0.7,0.4,1.2,0.6c0.2,0.5,0.5,0.9,0.6,1.2C26.6,19.9,26.2,19.6,25.8,19.4z M24.5,17.9
			c-0.3,0.1-0.7,0.2-1.1,0.4c-0.4-0.1-0.9-0.3-1.1-0.4c0.3-0.1,0.7-0.3,1.1-0.4C23.8,17.7,24.2,17.8,24.5,17.9z M21.6,18.2
			c-0.2,0.3-0.4,0.7-0.7,1.2c-0.4,0.2-0.9,0.5-1.2,0.7c0.1-0.3,0.4-0.7,0.6-1.2C20.9,18.6,21.3,18.3,21.6,18.2z M19.3,19.9
			c-0.1,0.2-0.3,0.6-0.4,1.1c-0.2-0.5-0.3-0.9-0.4-1.1c0.2-0.1,0.6-0.4,1.1-0.6C19.5,19.5,19.4,19.8,19.3,19.9z M19.6,20.6
			c0.1,0.3,0.2,0.7,0.4,1.1c-0.1,0.4-0.3,0.9-0.4,1.1c-0.1-0.3-0.3-0.7-0.4-1.1C19.3,21.3,19.5,20.9,19.6,20.6z M19.3,23.5
			c0.1,0.2,0.2,0.4,0.3,0.7c-0.5-0.3-0.9-0.5-1.1-0.6c0.1-0.2,0.2-0.6,0.4-1.1C19.1,22.9,19.2,23.3,19.3,23.5z M19.8,23.5
			c0.3,0.2,0.7,0.4,1.2,0.7c0.2,0.4,0.5,0.9,0.7,1.2c-0.3-0.1-0.7-0.4-1.2-0.6C20.2,24.2,20,23.8,19.8,23.5z M22.3,25.5
			c0.3-0.1,0.7-0.2,1.1-0.4c0.4,0.1,0.9,0.3,1.1,0.4c-0.3,0.1-0.7,0.3-1.1,0.4C23,25.8,22.6,25.7,22.3,25.5z M25.1,25.3
			c0.2-0.3,0.4-0.7,0.7-1.2c0.4-0.2,0.9-0.5,1.2-0.7c-0.1,0.3-0.4,0.7-0.6,1.2C25.8,24.9,25.4,25.1,25.1,25.3z M27.4,23.5
			c0.1-0.2,0.3-0.6,0.4-1.1c0.2,0.5,0.3,0.9,0.4,1.1c-0.2,0.1-0.6,0.4-1.1,0.6C27.2,24,27.3,23.7,27.4,23.5z M27.2,22.9
			c-0.1-0.3-0.2-0.7-0.4-1.1c0.1-0.4,0.3-0.9,0.4-1.1c0.1,0.3,0.3,0.7,0.4,1.1C27.4,22.1,27.3,22.5,27.2,22.9z M27.4,19.9
			c-0.1-0.2-0.2-0.4-0.3-0.7c0.5,0.3,0.9,0.5,1.1,0.6c-0.1,0.2-0.2,0.6-0.4,1.1C27.7,20.6,27.5,20.2,27.4,19.9z M26.7,18.5
			c-0.3-0.5-0.6-1-0.8-1.4c0.4,0.2,0.9,0.5,1.5,0.8c0.3,0.5,0.6,1.1,0.8,1.5C27.7,19,27.2,18.7,26.7,18.5z M25.8,16.4
			c-0.3-0.2-0.9-0.4-1.5-0.6c0.7-0.2,1.3-0.4,1.6-0.5c0.2,0.3,0.5,0.9,0.9,1.6C26.4,16.7,26,16.5,25.8,16.4z M24.7,16.6
			c-0.4,0.1-0.9,0.3-1.4,0.5c-0.5-0.2-1-0.3-1.4-0.5c0.4-0.2,0.9-0.3,1.4-0.5C23.9,16.3,24.3,16.4,24.7,16.6z M21,16.4
			c-0.3,0.1-0.6,0.3-1,0.5c0.4-0.7,0.7-1.3,0.9-1.6c0.3,0.1,0.9,0.3,1.6,0.5C21.9,16,21.3,16.2,21,16.4z M20.9,17
			c-0.2,0.4-0.5,0.9-0.8,1.4c-0.5,0.3-1,0.6-1.4,0.8c0.2-0.4,0.5-0.9,0.8-1.5C20,17.5,20.5,17.2,20.9,17z M18,19.3
			c-0.2,0.3-0.4,0.9-0.6,1.5c-0.2-0.7-0.4-1.3-0.5-1.6c0.3-0.2,0.9-0.5,1.6-0.9C18.3,18.7,18.1,19.1,18,19.3z M18.2,20.4
			c0.1,0.4,0.3,0.9,0.5,1.4c-0.2,0.5-0.3,1-0.5,1.4c-0.2-0.4-0.3-0.9-0.5-1.4C17.9,21.3,18.1,20.8,18.2,20.4z M18,24.1
			c0.1,0.3,0.3,0.6,0.5,1c-0.7-0.4-1.3-0.7-1.6-0.9c0.1-0.3,0.3-0.9,0.5-1.6C17.6,23.2,17.8,23.8,18,24.1z M18.7,24.2
			c0.4,0.2,0.9,0.5,1.4,0.8c0.3,0.5,0.6,1,0.8,1.4c-0.4-0.2-0.9-0.5-1.5-0.8C19.1,25.1,18.9,24.6,18.7,24.2z M21,27.1
			c0.3,0.2,0.9,0.4,1.5,0.6c-0.7,0.2-1.3,0.4-1.6,0.5c-0.2-0.3-0.5-0.9-0.9-1.6C20.4,26.8,20.7,27,21,27.1z M22,26.9
			c0.4-0.1,0.9-0.3,1.4-0.5c0.5,0.2,1,0.3,1.4,0.5c-0.4,0.2-0.9,0.3-1.4,0.5C22.9,27.2,22.4,27.1,22,26.9z M25.7,27.1
			c0.3-0.1,0.6-0.3,1-0.5c-0.4,0.7-0.7,1.3-0.9,1.6c-0.3-0.1-0.9-0.3-1.6-0.5C24.9,27.5,25.4,27.3,25.7,27.1z M25.9,26.4
			c0.2-0.4,0.5-0.9,0.8-1.4c0.5-0.3,1-0.6,1.4-0.8c-0.2,0.4-0.5,0.9-0.8,1.5C26.8,26,26.3,26.2,25.9,26.4z M28.8,24.1
			c0.2-0.3,0.4-0.9,0.6-1.5c0.2,0.7,0.4,1.3,0.5,1.6c-0.3,0.2-0.9,0.5-1.6,0.9C28.5,24.7,28.6,24.4,28.8,24.1z M28.5,23.1
			c-0.1-0.4-0.3-0.9-0.5-1.4c0.2-0.5,0.3-1,0.5-1.4c0.2,0.4,0.3,0.9,0.5,1.4C28.9,22.2,28.7,22.7,28.5,23.1z M28.8,19.3
			c-0.1-0.3-0.3-0.6-0.5-1c0.7,0.4,1.3,0.7,1.6,0.9c-0.1,0.3-0.3,0.9-0.5,1.6C29.1,20.2,28.9,19.7,28.8,19.3z M27.7,17.4
			c-0.6-1.1-1.2-2.2-1.4-2.5c0,0,0.1,0,0.1,0c0.6,0.3,1.5,0.8,2.5,1.3c0.5,1,1,1.9,1.3,2.5c0,0,0,0.1,0,0.1
			C29.9,18.6,28.8,18,27.7,17.4z M23.4,15.5c-1.1-0.4-2.1-0.7-2.4-0.8c0.7-0.3,1.5-0.6,2.4-0.9c0.9,0.3,1.8,0.6,2.4,0.9
			C25.5,14.8,24.4,15.1,23.4,15.5z M19,17.4c-1.1,0.6-2.2,1.2-2.5,1.4c0,0,0-0.1,0-0.1c0.3-0.6,0.8-1.5,1.3-2.5c1-0.5,1.9-1,2.5-1.3
			c0,0,0.1,0,0.1,0C20.2,15.2,19.6,16.3,19,17.4z M16.3,19.3c0.1,0.3,0.4,1.4,0.8,2.4c-0.4,1.1-0.7,2.1-0.8,2.4
			c-0.3-0.7-0.6-1.5-0.9-2.4C15.7,20.8,16,20,16.3,19.3z M19,26.1c0.6,1.1,1.2,2.2,1.4,2.5c0,0,0,0-0.1,0c-0.6-0.3-1.5-0.8-2.5-1.3
			c-0.5-1-1-1.9-1.3-2.5c0,0,0-0.1,0-0.1C16.8,24.9,17.9,25.5,19,26.1z M23.4,28c1.1,0.4,2.1,0.7,2.4,0.8c-0.7,0.3-1.5,0.6-2.4,0.9
			c-0.9-0.3-1.8-0.6-2.4-0.9C21.3,28.7,22.3,28.4,23.4,28z M27.7,26.1c1.1-0.6,2.2-1.2,2.5-1.4c0,0,0,0.1,0,0.1
			c-0.3,0.6-0.8,1.5-1.3,2.5c-1,0.5-2,1.1-2.5,1.3c0,0,0,0-0.1,0C26.5,28.3,27.1,27.2,27.7,26.1z M30.4,24.2
			c-0.1-0.3-0.4-1.4-0.8-2.4c0.4-1.1,0.7-2.1,0.8-2.4c0.3,0.7,0.6,1.5,0.9,2.4C31,22.6,30.7,23.5,30.4,24.2z M30.7,18.5
			c-0.2-0.4-0.5-1.1-0.9-1.8c1.1,0.6,2.1,1.2,2.6,1.5l0,0.1l0.1,0c-0.1,0.5-0.5,1.5-0.9,2.6C31.3,19.9,31,19,30.7,18.5z M29.3,15.8
			c-0.6-1.1-1.3-2.3-1.7-3c1.8,0.2,3.5,0.3,4.3,0.4l0.4,4.3C31.6,17.1,30.5,16.4,29.3,15.8z M23.4,13.2c-1.3-0.4-2.5-0.8-3.1-1
			c1.3-1.1,2.6-2.2,3.1-2.6l0,0c0.5,0.4,1.8,1.5,3.1,2.6C25.9,12.4,24.6,12.8,23.4,13.2z M17.4,15.8c-1.1,0.6-2.3,1.3-3,1.7
			c0.2-1.8,0.3-3.5,0.4-4.3c0.7-0.1,2.5-0.3,4.3-0.4C18.7,13.5,18.1,14.7,17.4,15.8z M16.9,16.7c-0.4,0.7-0.7,1.3-0.9,1.8
			c-0.2,0.5-0.6,1.4-0.9,2.4c-0.3-1-0.7-2-0.8-2.5l0,0l0-0.3C14.9,17.9,15.9,17.3,16.9,16.7z M15.1,22.6c0.3,1,0.7,1.9,0.9,2.4
			c0.2,0.4,0.5,1.1,0.9,1.8c-1.1-0.6-2.1-1.2-2.6-1.5l0-0.3l0,0C14.5,24.5,14.8,23.6,15.1,22.6z M17.4,27.7c0.6,1.1,1.3,2.3,1.7,3
			c-1.8-0.2-3.5-0.3-4.3-0.4c-0.1-0.7-0.3-2.5-0.4-4.3C15.1,26.4,16.3,27.1,17.4,27.7z M23.4,30.3c1.3,0.4,2.5,0.8,3.1,1l-3.1,2.6
			l0,0c-0.5-0.4-1.8-1.5-3.1-2.6C20.9,31.1,22.1,30.7,23.4,30.3z M29.3,27.7c1.1-0.6,2.3-1.3,3-1.7c-0.2,1.8-0.3,3.5-0.4,4.3
			l-4.3,0.4C28,30,28.7,28.8,29.3,27.7z M29.8,26.8c0.4-0.7,0.7-1.3,0.9-1.8c0.2-0.5,0.6-1.4,0.9-2.4c0.4,1.1,0.7,2,0.8,2.5l-0.1,0
			l0,0.2C31.9,25.6,30.9,26.2,29.8,26.8z M31.9,21.7c0.4-1.3,0.8-2.5,1-3.1l2.6,3.1l0,0c-0.4,0.5-1.5,1.8-2.6,3.1
			C32.8,24.3,32.4,23,31.9,21.7z M33.2,25.7c1-1.2,2-2.4,2.6-3.1c0.7,2.1,1.3,4.1,1.5,4.9l-4.5,2.4C32.9,28.9,33.1,27.3,33.2,25.7z
			 M35.8,20.9l-2.5-3.1l-0.4-4.3c1.9,1,3.7,2,4.5,2.4C37.1,16.8,36.5,18.8,35.8,20.9z M31.5,12.3c-1-0.1-2.6-0.3-4.2-0.4l0,0
			c-1.2-1-2.4-2-3.1-2.5c2.1-0.7,4.1-1.3,4.9-1.5C29.5,8.5,30.5,10.4,31.5,12.3z M23.4,2.7c0.8,0.6,3,2.4,5.2,4.2
			c-1,0.3-3,0.9-5,1.5l-0.2,0.1c-2-0.6-4.1-1.3-5.2-1.6C20.4,5.1,22.6,3.4,23.4,2.7z M17.6,7.8c0.8,0.2,2.9,0.8,5,1.5
			c-0.7,0.6-1.9,1.6-3.1,2.6c-1.6,0.1-3.3,0.3-4.2,0.4C16.2,10.4,17.2,8.5,17.6,7.8z M9.9,8.3c1-0.1,3.8-0.4,6.7-0.7
			c-0.5,1-1.6,2.9-2.5,4.8l-0.2,0.1c-1.8,1-3.7,2-4.6,2.5C9.5,12.1,9.8,9.3,9.9,8.3z M8.6,26.9c-1.9-2.2-3.6-4.4-4.3-5.2
			c0.6-0.8,2.4-3,4.2-5.2c0.3,1,0.9,3,1.5,5l0.1,0.2C9.6,23.8,8.9,25.9,8.6,26.9z M9.9,35.2c-0.1-1-0.4-3.8-0.7-6.7l4.8,2.6l2.6,4.8
			C13.8,35.6,10.9,35.3,9.9,35.2z M15.2,31.2c0.9,0.1,2.6,0.3,4.2,0.4l0.1,0c1.2,1,2.4,2,3.1,2.6c-2.1,0.7-4.1,1.3-4.9,1.5
			L15.2,31.2z M23.4,40.8c-0.8-0.6-3-2.4-5.2-4.2c1-0.3,3.1-0.9,5.1-1.6l0.1,0c2,0.6,4.1,1.3,5.2,1.6L23.4,40.8z M29.2,35.7
			c-0.8-0.2-2.9-0.8-5-1.5l3.1-2.5l4.2-0.4L29.2,35.7z M36.8,35.2l-6.7,0.7l2.6-4.8l4.8-2.6C37.2,31.4,36.9,34.2,36.8,35.2z
			 M38.1,26.9c-0.3-1-0.9-3-1.5-5l-0.1-0.2c0.6-2,1.3-4.1,1.6-5.2l4.3,5.2C41.8,22.5,40,24.7,38.1,26.9z"/>
	</g>
	<g>
		<path class="st77" d="M24.5,22.8c0,0-0.8,0.1-1.1,0.1c-0.3,0-1.1-0.1-1.1-0.1s-0.1-0.8-0.1-1.1c0-0.3,0.1-1.1,0.1-1.1
			s0.8-0.1,1.1-0.1c0.3,0,1.1,0.1,1.1,0.1s0.1,0.8,0.1,1.1C24.6,22,24.5,22.8,24.5,22.8z"/>
	</g>
</g>
</svg>
