<?xml version="1.0" encoding="utf-8"?>
<!-- Generator: Adobe Illustrator 17.1.0, SVG Export Plug-In . SVG Version: 6.00 Build 0)  -->
<!DOCTYPE svg PUBLIC "-//W3C//DTD SVG 1.1//EN" "http://www.w3.org/Graphics/SVG/1.1/DTD/svg11.dtd">
<svg version="1.1" id="Layer_1" xmlns="http://www.w3.org/2000/svg" xmlns:xlink="http://www.w3.org/1999/xlink" x="0px" y="0px"
	 viewBox="0 0 34 34" style="enable-background:new 0 0 34 34;" xml:space="preserve">
<style type="text/css">
	.st0{fill:#222428;}
	.st1{clip-path:url(#SVGID_2_);fill:#3362A3;}
	.st2{clip-path:url(#SVGID_2_);fill:#3363A4;}
	.st3{clip-path:url(#SVGID_2_);fill:#3464A4;}
	.st4{clip-path:url(#SVGID_2_);fill:#3465A5;}
	.st5{clip-path:url(#SVGID_2_);fill:#3466A6;}
	.st6{clip-path:url(#SVGID_2_);fill:#3567A6;}
	.st7{clip-path:url(#SVGID_2_);fill:#3568A7;}
	.st8{clip-path:url(#SVGID_2_);fill:#3569A8;}
	.st9{clip-path:url(#SVGID_2_);fill:#366AA8;}
	.st10{clip-path:url(#SVGID_2_);fill:#366BA9;}
	.st11{clip-path:url(#SVGID_2_);fill:#366CAA;}
	.st12{clip-path:url(#SVGID_2_);fill:#376DAA;}
	.st13{clip-path:url(#SVGID_2_);fill:#376EAB;}
	.st14{clip-path:url(#SVGID_2_);fill:#386FAB;}
	.st15{clip-path:url(#SVGID_2_);fill:#3870AC;}
	.st16{clip-path:url(#SVGID_2_);fill:#3871AD;}
	.st17{clip-path:url(#SVGID_2_);fill:#3972AD;}
	.st18{clip-path:url(#SVGID_2_);fill:#3973AE;}
	.st19{clip-path:url(#SVGID_2_);fill:#3974AF;}
	.st20{clip-path:url(#SVGID_2_);fill:#3A75AF;}
	.st21{clip-path:url(#SVGID_2_);fill:#3A76B0;}
	.st22{clip-path:url(#SVGID_2_);fill:#3A77B1;}
	.st23{clip-path:url(#SVGID_2_);fill:#3B78B1;}
	.st24{clip-path:url(#SVGID_2_);fill:#3B79B2;}
	.st25{clip-path:url(#SVGID_2_);fill:#3B7AB3;}
	.st26{clip-path:url(#SVGID_2_);fill:#3C7BB3;}
	.st27{clip-path:url(#SVGID_2_);fill:#3C7CB4;}
	.st28{clip-path:url(#SVGID_2_);fill:#3C7DB5;}
	.st29{clip-path:url(#SVGID_2_);fill:#3D7EB5;}
	.st30{clip-path:url(#SVGID_2_);fill:#3D7FB6;}
	.st31{clip-path:url(#SVGID_2_);fill:#3D80B7;}
	.st32{clip-path:url(#SVGID_2_);fill:#3E81B7;}
	.st33{clip-path:url(#SVGID_2_);fill:#3E82B8;}
	.st34{clip-path:url(#SVGID_2_);fill:#3E83B9;}
	.st35{clip-path:url(#SVGID_2_);fill:#3F84B9;}
	.st36{clip-path:url(#SVGID_2_);fill:#3F85BA;}
	.st37{clip-path:url(#SVGID_2_);fill:#3F86BB;}
	.st38{clip-path:url(#SVGID_2_);fill:#4087BB;}
	.st39{clip-path:url(#SVGID_2_);fill:#4089BC;}
	.st40{clip-path:url(#SVGID_2_);fill:#418ABC;}
	.st41{clip-path:url(#SVGID_2_);fill:#418BBD;}
	.st42{clip-path:url(#SVGID_2_);fill:#418CBE;}
	.st43{clip-path:url(#SVGID_2_);fill:#428DBE;}
	.st44{clip-path:url(#SVGID_2_);fill:#428EBF;}
	.st45{clip-path:url(#SVGID_2_);fill:#428FC0;}
	.st46{clip-path:url(#SVGID_2_);fill:#4390C0;}
	.st47{clip-path:url(#SVGID_2_);fill:#4391C1;}
	.st48{clip-path:url(#SVGID_2_);fill:#4392C2;}
	.st49{clip-path:url(#SVGID_2_);fill:#4493C2;}
	.st50{clip-path:url(#SVGID_2_);fill:#4494C3;}
	.st51{clip-path:url(#SVGID_2_);fill:#4495C4;}
	.st52{clip-path:url(#SVGID_2_);fill:#4596C4;}
	.st53{clip-path:url(#SVGID_2_);fill:#4597C5;}
	.st54{clip-path:url(#SVGID_2_);fill:#4598C6;}
	.st55{clip-path:url(#SVGID_2_);fill:#4699C6;}
	.st56{clip-path:url(#SVGID_2_);fill:#469AC7;}
	.st57{clip-path:url(#SVGID_2_);fill:#469BC8;}
	.st58{clip-path:url(#SVGID_2_);fill:#479CC8;}
	.st59{clip-path:url(#SVGID_2_);fill:#479DC9;}
	.st60{clip-path:url(#SVGID_2_);fill:#479ECA;}
	.st61{clip-path:url(#SVGID_2_);fill:#489FCA;}
	.st62{clip-path:url(#SVGID_2_);fill:#48A0CB;}
	.st63{clip-path:url(#SVGID_2_);fill:#48A1CC;}
	.st64{clip-path:url(#SVGID_2_);fill:#49A2CC;}
	.st65{clip-path:url(#SVGID_2_);fill:#49A3CD;}
	.st66{clip-path:url(#SVGID_2_);fill:#4AA4CD;}
	.st67{clip-path:url(#SVGID_2_);fill:#4AA5CE;}
	.st68{clip-path:url(#SVGID_2_);fill:#4AA6CF;}
	.st69{clip-path:url(#SVGID_2_);fill:#4BA7CF;}
	.st70{clip-path:url(#SVGID_2_);fill:#4BA8D0;}
	.st71{clip-path:url(#SVGID_2_);fill:#4BA9D1;}
	.st72{clip-path:url(#SVGID_2_);fill:#4CAAD1;}
	.st73{clip-path:url(#SVGID_2_);fill:#4CABD2;}
	.st74{clip-path:url(#SVGID_2_);fill:#4CACD3;}
	.st75{clip-path:url(#SVGID_2_);fill:#4DADD3;}
	.st76{clip-path:url(#SVGID_2_);fill:#4DAED4;}
	.st77{fill:#FFFFFF;}
	.st78{fill:#4AACD3;}
	.st79{fill:#F9FAFB;}
	.st80{fill:#48ABD2;}
	.st81{fill:#F1F1F2;}
	.st82{clip-path:url(#SVGID_4_);}
	.st83{fill:#B6B3B9;}
	.st84{fill:#E75858;}
	.st85{clip-path:url(#SVGID_6_);fill:#1D1D1E;}
	.st86{clip-path:url(#SVGID_6_);fill:#1E1E1F;}
	.st87{clip-path:url(#SVGID_6_);fill:#1F2021;}
	.st88{clip-path:url(#SVGID_6_);fill:#212122;}
	.st89{clip-path:url(#SVGID_6_);fill:#222224;}
	.st90{clip-path:url(#SVGID_6_);fill:#232325;}
	.st91{clip-path:url(#SVGID_6_);fill:#242526;}
	.st92{clip-path:url(#SVGID_6_);fill:#252628;}
	.st93{clip-path:url(#SVGID_6_);fill:#262729;}
	.st94{clip-path:url(#SVGID_6_);fill:#28282A;}
	.st95{clip-path:url(#SVGID_6_);fill:#29292B;}
	.st96{clip-path:url(#SVGID_6_);fill:#2A2A2D;}
	.st97{clip-path:url(#SVGID_6_);fill:#2B2C2E;}
	.st98{clip-path:url(#SVGID_6_);fill:#2C2D2F;}
	.st99{clip-path:url(#SVGID_6_);fill:#2D2E30;}
	.st100{clip-path:url(#SVGID_6_);fill:#2E2F32;}
	.st101{clip-path:url(#SVGID_6_);fill:#2F3033;}
	.st102{clip-path:url(#SVGID_6_);fill:#303134;}
	.st103{clip-path:url(#SVGID_6_);fill:#313235;}
	.st104{clip-path:url(#SVGID_6_);fill:#323336;}
	.st105{clip-path:url(#SVGID_6_);fill:#333438;}
	.st106{clip-path:url(#SVGID_6_);fill:#343539;}
	.st107{clip-path:url(#SVGID_6_);fill:#35363A;}
	.st108{clip-path:url(#SVGID_6_);fill:#36373B;}
	.st109{clip-path:url(#SVGID_6_);fill:#37383C;}
	.st110{clip-path:url(#SVGID_6_);fill:#38393D;}
	.st111{clip-path:url(#SVGID_6_);fill:#393A3E;}
	.st112{clip-path:url(#SVGID_6_);fill:#3A3B3F;}
	.st113{clip-path:url(#SVGID_6_);fill:#3B3C40;}
	.st114{clip-path:url(#SVGID_6_);fill:#3B3D41;}
	.st115{clip-path:url(#SVGID_6_);fill:#3C3E42;}
	.st116{clip-path:url(#SVGID_6_);fill:#3D3F43;}
	.st117{clip-path:url(#SVGID_6_);fill:#3E3F44;}
	.st118{clip-path:url(#SVGID_6_);fill:#3F4045;}
	.st119{clip-path:url(#SVGID_6_);fill:#3F4145;}
	.st120{clip-path:url(#SVGID_6_);fill:#404246;}
	.st121{clip-path:url(#SVGID_6_);fill:#414247;}
	.st122{clip-path:url(#SVGID_6_);fill:#414348;}
	.st123{clip-path:url(#SVGID_6_);fill:#424448;}
	.st124{clip-path:url(#SVGID_6_);fill:#434449;}
	.st125{clip-path:url(#SVGID_6_);fill:#43454A;}
	.st126{clip-path:url(#SVGID_6_);fill:#44454A;}
	.st127{clip-path:url(#SVGID_6_);fill:#44464B;}
	.st128{clip-path:url(#SVGID_6_);fill:#45474C;}
	.st129{clip-path:url(#SVGID_6_);fill:#44464A;}
	.st130{clip-path:url(#SVGID_6_);fill:#424449;}
	.st131{clip-path:url(#SVGID_6_);fill:#414347;}
	.st132{clip-path:url(#SVGID_6_);fill:#404247;}
	.st133{clip-path:url(#SVGID_6_);fill:#404146;}
	.st134{clip-path:url(#SVGID_6_);fill:#3E4044;}
	.st135{clip-path:url(#SVGID_6_);fill:#3C3D41;}
	.st136{clip-path:url(#SVGID_6_);fill:#383A3D;}
	.st137{clip-path:url(#SVGID_6_);fill:#37393C;}
	.st138{clip-path:url(#SVGID_6_);fill:#36383B;}
	.st139{clip-path:url(#SVGID_6_);fill:#35373A;}
	.st140{clip-path:url(#SVGID_6_);fill:#353639;}
	.st141{clip-path:url(#SVGID_6_);fill:#343538;}
	.st142{clip-path:url(#SVGID_6_);fill:#333437;}
	.st143{clip-path:url(#SVGID_6_);fill:#2F3032;}
	.st144{clip-path:url(#SVGID_6_);fill:#2E2F31;}
	.st145{clip-path:url(#SVGID_6_);fill:#2B2B2E;}
	.st146{clip-path:url(#SVGID_6_);fill:#29292C;}
	.st147{clip-path:url(#SVGID_6_);fill:#272729;}
	.st148{clip-path:url(#SVGID_6_);fill:#262628;}
	.st149{clip-path:url(#SVGID_6_);fill:#252527;}
	.st150{clip-path:url(#SVGID_6_);fill:#242425;}
	.st151{clip-path:url(#SVGID_6_);fill:#222324;}
	.st152{clip-path:url(#SVGID_6_);fill:#212223;}
	.st153{clip-path:url(#SVGID_6_);fill:#202022;}
	.st154{clip-path:url(#SVGID_6_);fill:#1F1F21;}
	.st155{fill:#090909;}
	.st156{fill:#333333;}
	.st157{fill:#C3C1C6;}
	.st158{opacity:0.8;}
	.st159{clip-path:url(#SVGID_8_);}
	.st160{clip-path:url(#SVGID_10_);fill:#1D1D1E;}
	.st161{clip-path:url(#SVGID_10_);fill:#1E1E1F;}
	.st162{clip-path:url(#SVGID_10_);fill:#1F2021;}
	.st163{clip-path:url(#SVGID_10_);fill:#212122;}
	.st164{clip-path:url(#SVGID_10_);fill:#222224;}
	.st165{clip-path:url(#SVGID_10_);fill:#232325;}
	.st166{clip-path:url(#SVGID_10_);fill:#242526;}
	.st167{clip-path:url(#SVGID_10_);fill:#252628;}
	.st168{clip-path:url(#SVGID_10_);fill:#262729;}
	.st169{clip-path:url(#SVGID_10_);fill:#28282A;}
	.st170{clip-path:url(#SVGID_10_);fill:#29292B;}
	.st171{clip-path:url(#SVGID_10_);fill:#2A2A2D;}
	.st172{clip-path:url(#SVGID_10_);fill:#2B2C2E;}
	.st173{clip-path:url(#SVGID_10_);fill:#2C2D2F;}
	.st174{clip-path:url(#SVGID_10_);fill:#2D2E30;}
	.st175{clip-path:url(#SVGID_10_);fill:#2E2F32;}
	.st176{clip-path:url(#SVGID_10_);fill:#2F3033;}
	.st177{clip-path:url(#SVGID_10_);fill:#303134;}
	.st178{clip-path:url(#SVGID_10_);fill:#313235;}
	.st179{clip-path:url(#SVGID_10_);fill:#323336;}
	.st180{clip-path:url(#SVGID_10_);fill:#333438;}
	.st181{clip-path:url(#SVGID_10_);fill:#343539;}
	.st182{clip-path:url(#SVGID_10_);fill:#35363A;}
	.st183{clip-path:url(#SVGID_10_);fill:#36373B;}
	.st184{clip-path:url(#SVGID_10_);fill:#37383C;}
	.st185{clip-path:url(#SVGID_10_);fill:#38393D;}
	.st186{clip-path:url(#SVGID_10_);fill:#393A3E;}
	.st187{clip-path:url(#SVGID_10_);fill:#3A3B3F;}
	.st188{clip-path:url(#SVGID_10_);fill:#3B3C40;}
	.st189{clip-path:url(#SVGID_10_);fill:#3B3D41;}
	.st190{clip-path:url(#SVGID_10_);fill:#3C3E42;}
	.st191{clip-path:url(#SVGID_10_);fill:#3D3F43;}
	.st192{clip-path:url(#SVGID_10_);fill:#3E3F44;}
	.st193{clip-path:url(#SVGID_10_);fill:#3F4045;}
	.st194{clip-path:url(#SVGID_10_);fill:#3F4145;}
	.st195{clip-path:url(#SVGID_10_);fill:#404246;}
	.st196{clip-path:url(#SVGID_10_);fill:#414247;}
	.st197{clip-path:url(#SVGID_10_);fill:#414348;}
	.st198{clip-path:url(#SVGID_10_);fill:#424448;}
	.st199{clip-path:url(#SVGID_10_);fill:#434449;}
	.st200{clip-path:url(#SVGID_10_);fill:#43454A;}
	.st201{clip-path:url(#SVGID_10_);fill:#44454A;}
	.st202{clip-path:url(#SVGID_10_);fill:#44464B;}
	.st203{clip-path:url(#SVGID_10_);fill:#45474C;}
	.st204{clip-path:url(#SVGID_10_);fill:#44464A;}
	.st205{clip-path:url(#SVGID_10_);fill:#424449;}
	.st206{clip-path:url(#SVGID_10_);fill:#414347;}
	.st207{clip-path:url(#SVGID_10_);fill:#404247;}
	.st208{clip-path:url(#SVGID_10_);fill:#404146;}
	.st209{clip-path:url(#SVGID_10_);fill:#3E4044;}
	.st210{clip-path:url(#SVGID_10_);fill:#3C3D41;}
	.st211{clip-path:url(#SVGID_10_);fill:#383A3D;}
	.st212{clip-path:url(#SVGID_10_);fill:#37393C;}
	.st213{clip-path:url(#SVGID_10_);fill:#36383B;}
	.st214{clip-path:url(#SVGID_10_);fill:#35373A;}
	.st215{clip-path:url(#SVGID_10_);fill:#353639;}
	.st216{clip-path:url(#SVGID_10_);fill:#343538;}
	.st217{clip-path:url(#SVGID_10_);fill:#333437;}
	.st218{clip-path:url(#SVGID_10_);fill:#2F3032;}
	.st219{clip-path:url(#SVGID_10_);fill:#2E2F31;}
	.st220{clip-path:url(#SVGID_10_);fill:#2B2B2E;}
	.st221{clip-path:url(#SVGID_10_);fill:#29292C;}
	.st222{clip-path:url(#SVGID_10_);fill:#272729;}
	.st223{clip-path:url(#SVGID_10_);fill:#262628;}
	.st224{clip-path:url(#SVGID_10_);fill:#252527;}
	.st225{clip-path:url(#SVGID_10_);fill:#242425;}
	.st226{clip-path:url(#SVGID_10_);fill:#222324;}
	.st227{clip-path:url(#SVGID_10_);fill:#212223;}
	.st228{clip-path:url(#SVGID_10_);fill:#202022;}
	.st229{clip-path:url(#SVGID_10_);fill:#1F1F21;}
	.st230{clip-path:url(#SVGID_12_);}
	.st231{fill:#CBCFD3;}
	.st232{fill:#31363D;}
	.st233{fill:none;}
	.st234{fill:#212221;}
	.st235{opacity:0.5;}
	.st236{opacity:0.9;}
	.st237{fill:#F9F9F9;}
	.st238{fill:#47AAD1;}
	.st239{clip-path:url(#SVGID_14_);}
	.st240{fill:url(#SVGID_15_);}
	.st241{opacity:0.8;fill:#222428;}
	.st242{clip-path:url(#SVGID_19_);}
	.st243{fill:url(#SVGID_20_);}
	.st244{clip-path:url(#SVGID_22_);}
	.st245{clip-path:url(#SVGID_22_);fill:#CBCFD3;}
	.st246{opacity:0.5;fill:#212221;}
	.st247{fill:none;stroke:#F9FAFB;stroke-width:2;stroke-linecap:round;stroke-miterlimit:10;}
	.st248{opacity:0.9;fill:#222428;}
	.st249{fill:none;stroke:#F9F9F9;stroke-width:2;stroke-miterlimit:10;}
	.st250{fill:none;stroke:#31363D;stroke-width:4;stroke-linecap:round;stroke-linejoin:round;}
	.st251{fill:none;stroke:#31363D;stroke-width:4;stroke-linecap:round;stroke-linejoin:round;stroke-dasharray:0,10.2597;}
	.st252{fill:none;stroke:#31363D;stroke-width:4;stroke-linecap:round;stroke-linejoin:round;stroke-dasharray:0,9.7789;}
	.st253{fill:none;stroke:#FFFFFF;stroke-width:2;stroke-miterlimit:10;}
	.st254{clip-path:url(#SVGID_24_);}
	.st255{clip-path:url(#SVGID_26_);fill:#1D1D1E;}
	.st256{clip-path:url(#SVGID_26_);fill:#1E1E1F;}
	.st257{clip-path:url(#SVGID_26_);fill:#1F2021;}
	.st258{clip-path:url(#SVGID_26_);fill:#212122;}
	.st259{clip-path:url(#SVGID_26_);fill:#222224;}
	.st260{clip-path:url(#SVGID_26_);fill:#232325;}
	.st261{clip-path:url(#SVGID_26_);fill:#242526;}
	.st262{clip-path:url(#SVGID_26_);fill:#252628;}
	.st263{clip-path:url(#SVGID_26_);fill:#262729;}
	.st264{clip-path:url(#SVGID_26_);fill:#28282A;}
	.st265{clip-path:url(#SVGID_26_);fill:#29292B;}
	.st266{clip-path:url(#SVGID_26_);fill:#2A2A2D;}
	.st267{clip-path:url(#SVGID_26_);fill:#2B2C2E;}
	.st268{clip-path:url(#SVGID_26_);fill:#2C2D2F;}
	.st269{clip-path:url(#SVGID_26_);fill:#2D2E30;}
	.st270{clip-path:url(#SVGID_26_);fill:#2E2F32;}
	.st271{clip-path:url(#SVGID_26_);fill:#2F3033;}
	.st272{clip-path:url(#SVGID_26_);fill:#303134;}
	.st273{clip-path:url(#SVGID_26_);fill:#313235;}
	.st274{clip-path:url(#SVGID_26_);fill:#323336;}
	.st275{clip-path:url(#SVGID_26_);fill:#333438;}
	.st276{clip-path:url(#SVGID_26_);fill:#343539;}
	.st277{clip-path:url(#SVGID_26_);fill:#35363A;}
	.st278{clip-path:url(#SVGID_26_);fill:#36373B;}
	.st279{clip-path:url(#SVGID_26_);fill:#37383C;}
	.st280{clip-path:url(#SVGID_26_);fill:#38393D;}
	.st281{clip-path:url(#SVGID_26_);fill:#393A3E;}
	.st282{clip-path:url(#SVGID_26_);fill:#3A3B3F;}
	.st283{clip-path:url(#SVGID_26_);fill:#3B3C40;}
	.st284{clip-path:url(#SVGID_26_);fill:#3B3D41;}
	.st285{clip-path:url(#SVGID_26_);fill:#3C3E42;}
	.st286{clip-path:url(#SVGID_26_);fill:#3D3F43;}
	.st287{clip-path:url(#SVGID_26_);fill:#3E3F44;}
	.st288{clip-path:url(#SVGID_26_);fill:#3F4045;}
	.st289{clip-path:url(#SVGID_26_);fill:#3F4145;}
	.st290{clip-path:url(#SVGID_26_);fill:#404246;}
	.st291{clip-path:url(#SVGID_26_);fill:#414247;}
	.st292{clip-path:url(#SVGID_26_);fill:#414348;}
	.st293{clip-path:url(#SVGID_26_);fill:#424448;}
	.st294{clip-path:url(#SVGID_26_);fill:#434449;}
	.st295{clip-path:url(#SVGID_26_);fill:#43454A;}
	.st296{clip-path:url(#SVGID_26_);fill:#44454A;}
	.st297{clip-path:url(#SVGID_26_);fill:#44464B;}
	.st298{clip-path:url(#SVGID_26_);fill:#45474C;}
	.st299{clip-path:url(#SVGID_26_);fill:#44464A;}
	.st300{clip-path:url(#SVGID_26_);fill:#424449;}
	.st301{clip-path:url(#SVGID_26_);fill:#414347;}
	.st302{clip-path:url(#SVGID_26_);fill:#404247;}
	.st303{clip-path:url(#SVGID_26_);fill:#404146;}
	.st304{clip-path:url(#SVGID_26_);fill:#3E4044;}
	.st305{clip-path:url(#SVGID_26_);fill:#3C3D41;}
	.st306{clip-path:url(#SVGID_26_);fill:#383A3D;}
	.st307{clip-path:url(#SVGID_26_);fill:#37393C;}
	.st308{clip-path:url(#SVGID_26_);fill:#36383B;}
	.st309{clip-path:url(#SVGID_26_);fill:#35373A;}
	.st310{clip-path:url(#SVGID_26_);fill:#353639;}
	.st311{clip-path:url(#SVGID_26_);fill:#343538;}
	.st312{clip-path:url(#SVGID_26_);fill:#333437;}
	.st313{clip-path:url(#SVGID_26_);fill:#2F3032;}
	.st314{clip-path:url(#SVGID_26_);fill:#2E2F31;}
	.st315{clip-path:url(#SVGID_26_);fill:#2B2B2E;}
	.st316{clip-path:url(#SVGID_26_);fill:#29292C;}
	.st317{clip-path:url(#SVGID_26_);fill:#272729;}
	.st318{clip-path:url(#SVGID_26_);fill:#262628;}
	.st319{clip-path:url(#SVGID_26_);fill:#252527;}
	.st320{clip-path:url(#SVGID_26_);fill:#242425;}
	.st321{clip-path:url(#SVGID_26_);fill:#222324;}
	.st322{clip-path:url(#SVGID_26_);fill:#212223;}
	.st323{clip-path:url(#SVGID_26_);fill:#202022;}
	.st324{clip-path:url(#SVGID_26_);fill:#1F1F21;}
	.st325{clip-path:url(#SVGID_30_);}
	.st326{clip-path:url(#SVGID_32_);fill:#1D1D1E;}
	.st327{clip-path:url(#SVGID_32_);fill:#1E1E1F;}
	.st328{clip-path:url(#SVGID_32_);fill:#1F2021;}
	.st329{clip-path:url(#SVGID_32_);fill:#212122;}
	.st330{clip-path:url(#SVGID_32_);fill:#222224;}
	.st331{clip-path:url(#SVGID_32_);fill:#232325;}
	.st332{clip-path:url(#SVGID_32_);fill:#242526;}
	.st333{clip-path:url(#SVGID_32_);fill:#252628;}
	.st334{clip-path:url(#SVGID_32_);fill:#262729;}
	.st335{clip-path:url(#SVGID_32_);fill:#28282A;}
	.st336{clip-path:url(#SVGID_32_);fill:#29292B;}
	.st337{clip-path:url(#SVGID_32_);fill:#2A2A2D;}
	.st338{clip-path:url(#SVGID_32_);fill:#2B2C2E;}
	.st339{clip-path:url(#SVGID_32_);fill:#2C2D2F;}
	.st340{clip-path:url(#SVGID_32_);fill:#2D2E30;}
	.st341{clip-path:url(#SVGID_32_);fill:#2E2F32;}
	.st342{clip-path:url(#SVGID_32_);fill:#2F3033;}
	.st343{clip-path:url(#SVGID_32_);fill:#303134;}
	.st344{clip-path:url(#SVGID_32_);fill:#313235;}
	.st345{clip-path:url(#SVGID_32_);fill:#323336;}
	.st346{clip-path:url(#SVGID_32_);fill:#333438;}
	.st347{clip-path:url(#SVGID_32_);fill:#343539;}
	.st348{clip-path:url(#SVGID_32_);fill:#35363A;}
	.st349{clip-path:url(#SVGID_32_);fill:#36373B;}
	.st350{clip-path:url(#SVGID_32_);fill:#37383C;}
	.st351{clip-path:url(#SVGID_32_);fill:#38393D;}
	.st352{clip-path:url(#SVGID_32_);fill:#393A3E;}
	.st353{clip-path:url(#SVGID_32_);fill:#3A3B3F;}
	.st354{clip-path:url(#SVGID_32_);fill:#3B3C40;}
	.st355{clip-path:url(#SVGID_32_);fill:#3B3D41;}
	.st356{clip-path:url(#SVGID_32_);fill:#3C3E42;}
	.st357{clip-path:url(#SVGID_32_);fill:#3D3F43;}
	.st358{clip-path:url(#SVGID_32_);fill:#3E3F44;}
	.st359{clip-path:url(#SVGID_32_);fill:#3F4045;}
	.st360{clip-path:url(#SVGID_32_);fill:#3F4145;}
	.st361{clip-path:url(#SVGID_32_);fill:#404246;}
	.st362{clip-path:url(#SVGID_32_);fill:#414247;}
	.st363{clip-path:url(#SVGID_32_);fill:#414348;}
	.st364{clip-path:url(#SVGID_32_);fill:#424448;}
	.st365{clip-path:url(#SVGID_32_);fill:#434449;}
	.st366{clip-path:url(#SVGID_32_);fill:#43454A;}
	.st367{clip-path:url(#SVGID_32_);fill:#44454A;}
	.st368{clip-path:url(#SVGID_32_);fill:#44464B;}
	.st369{clip-path:url(#SVGID_32_);fill:#45474C;}
	.st370{clip-path:url(#SVGID_32_);fill:#44464A;}
	.st371{clip-path:url(#SVGID_32_);fill:#424449;}
	.st372{clip-path:url(#SVGID_32_);fill:#414347;}
	.st373{clip-path:url(#SVGID_32_);fill:#404247;}
	.st374{clip-path:url(#SVGID_32_);fill:#404146;}
	.st375{clip-path:url(#SVGID_32_);fill:#3E4044;}
	.st376{clip-path:url(#SVGID_32_);fill:#3C3D41;}
	.st377{clip-path:url(#SVGID_32_);fill:#383A3D;}
	.st378{clip-path:url(#SVGID_32_);fill:#37393C;}
	.st379{clip-path:url(#SVGID_32_);fill:#36383B;}
	.st380{clip-path:url(#SVGID_32_);fill:#35373A;}
	.st381{clip-path:url(#SVGID_32_);fill:#353639;}
	.st382{clip-path:url(#SVGID_32_);fill:#343538;}
	.st383{clip-path:url(#SVGID_32_);fill:#333437;}
	.st384{clip-path:url(#SVGID_32_);fill:#2F3032;}
	.st385{clip-path:url(#SVGID_32_);fill:#2E2F31;}
	.st386{clip-path:url(#SVGID_32_);fill:#2B2B2E;}
	.st387{clip-path:url(#SVGID_32_);fill:#29292C;}
	.st388{clip-path:url(#SVGID_32_);fill:#272729;}
	.st389{clip-path:url(#SVGID_32_);fill:#262628;}
	.st390{clip-path:url(#SVGID_32_);fill:#252527;}
	.st391{clip-path:url(#SVGID_32_);fill:#242425;}
	.st392{clip-path:url(#SVGID_32_);fill:#222324;}
	.st393{clip-path:url(#SVGID_32_);fill:#212223;}
	.st394{clip-path:url(#SVGID_32_);fill:#202022;}
	.st395{clip-path:url(#SVGID_32_);fill:#1F1F21;}
	.st396{clip-path:url(#SVGID_34_);}
	.st397{fill:#CCCCCB;}
	.st398{fill:#CCCBCB;}
	.st399{fill:#FAFAFA;}
	.st400{clip-path:url(#SVGID_38_);fill:#3362A3;}
	.st401{clip-path:url(#SVGID_38_);fill:#3363A4;}
	.st402{clip-path:url(#SVGID_38_);fill:#3464A4;}
	.st403{clip-path:url(#SVGID_38_);fill:#3465A5;}
	.st404{clip-path:url(#SVGID_38_);fill:#3466A6;}
	.st405{clip-path:url(#SVGID_38_);fill:#3567A6;}
	.st406{clip-path:url(#SVGID_38_);fill:#3568A7;}
	.st407{clip-path:url(#SVGID_38_);fill:#3569A8;}
	.st408{clip-path:url(#SVGID_38_);fill:#366AA8;}
	.st409{clip-path:url(#SVGID_38_);fill:#366BA9;}
	.st410{clip-path:url(#SVGID_38_);fill:#366CAA;}
	.st411{clip-path:url(#SVGID_38_);fill:#376DAA;}
	.st412{clip-path:url(#SVGID_38_);fill:#376EAB;}
	.st413{clip-path:url(#SVGID_38_);fill:#386FAB;}
	.st414{clip-path:url(#SVGID_38_);fill:#3870AC;}
	.st415{clip-path:url(#SVGID_38_);fill:#3871AD;}
	.st416{clip-path:url(#SVGID_38_);fill:#3972AD;}
	.st417{clip-path:url(#SVGID_38_);fill:#3973AE;}
	.st418{clip-path:url(#SVGID_38_);fill:#3974AF;}
	.st419{clip-path:url(#SVGID_38_);fill:#3A75AF;}
	.st420{clip-path:url(#SVGID_38_);fill:#3A76B0;}
	.st421{clip-path:url(#SVGID_38_);fill:#3A77B1;}
	.st422{clip-path:url(#SVGID_38_);fill:#3B78B1;}
	.st423{clip-path:url(#SVGID_38_);fill:#3B79B2;}
	.st424{clip-path:url(#SVGID_38_);fill:#3B7AB3;}
	.st425{clip-path:url(#SVGID_38_);fill:#3C7BB3;}
	.st426{clip-path:url(#SVGID_38_);fill:#3C7CB4;}
	.st427{clip-path:url(#SVGID_38_);fill:#3C7DB5;}
	.st428{clip-path:url(#SVGID_38_);fill:#3D7EB5;}
	.st429{clip-path:url(#SVGID_38_);fill:#3D7FB6;}
	.st430{clip-path:url(#SVGID_38_);fill:#3D80B7;}
	.st431{clip-path:url(#SVGID_38_);fill:#3E81B7;}
	.st432{clip-path:url(#SVGID_38_);fill:#3E82B8;}
	.st433{clip-path:url(#SVGID_38_);fill:#3E83B9;}
	.st434{clip-path:url(#SVGID_38_);fill:#3F84B9;}
	.st435{clip-path:url(#SVGID_38_);fill:#3F85BA;}
	.st436{clip-path:url(#SVGID_38_);fill:#3F86BB;}
	.st437{clip-path:url(#SVGID_38_);fill:#4087BB;}
	.st438{clip-path:url(#SVGID_38_);fill:#4089BC;}
	.st439{clip-path:url(#SVGID_38_);fill:#418ABC;}
	.st440{clip-path:url(#SVGID_38_);fill:#418BBD;}
	.st441{clip-path:url(#SVGID_38_);fill:#418CBE;}
	.st442{clip-path:url(#SVGID_38_);fill:#428DBE;}
	.st443{clip-path:url(#SVGID_38_);fill:#428EBF;}
	.st444{clip-path:url(#SVGID_38_);fill:#428FC0;}
	.st445{clip-path:url(#SVGID_38_);fill:#4390C0;}
	.st446{clip-path:url(#SVGID_38_);fill:#4391C1;}
	.st447{clip-path:url(#SVGID_38_);fill:#4392C2;}
	.st448{clip-path:url(#SVGID_38_);fill:#4493C2;}
	.st449{clip-path:url(#SVGID_38_);fill:#4494C3;}
	.st450{clip-path:url(#SVGID_38_);fill:#4495C4;}
	.st451{clip-path:url(#SVGID_38_);fill:#4596C4;}
	.st452{clip-path:url(#SVGID_38_);fill:#4597C5;}
	.st453{clip-path:url(#SVGID_38_);fill:#4598C6;}
	.st454{clip-path:url(#SVGID_38_);fill:#4699C6;}
	.st455{clip-path:url(#SVGID_38_);fill:#469AC7;}
	.st456{clip-path:url(#SVGID_38_);fill:#469BC8;}
	.st457{clip-path:url(#SVGID_38_);fill:#479CC8;}
	.st458{clip-path:url(#SVGID_38_);fill:#479DC9;}
	.st459{clip-path:url(#SVGID_38_);fill:#479ECA;}
	.st460{clip-path:url(#SVGID_38_);fill:#489FCA;}
	.st461{clip-path:url(#SVGID_38_);fill:#48A0CB;}
	.st462{clip-path:url(#SVGID_38_);fill:#48A1CC;}
	.st463{clip-path:url(#SVGID_38_);fill:#49A2CC;}
	.st464{clip-path:url(#SVGID_38_);fill:#49A3CD;}
	.st465{clip-path:url(#SVGID_38_);fill:#4AA4CD;}
	.st466{clip-path:url(#SVGID_38_);fill:#4AA5CE;}
	.st467{clip-path:url(#SVGID_38_);fill:#4AA6CF;}
	.st468{clip-path:url(#SVGID_38_);fill:#4BA7CF;}
	.st469{clip-path:url(#SVGID_38_);fill:#4BA8D0;}
	.st470{clip-path:url(#SVGID_38_);fill:#4BA9D1;}
	.st471{clip-path:url(#SVGID_38_);fill:#4CAAD1;}
	.st472{clip-path:url(#SVGID_38_);fill:#4CABD2;}
	.st473{clip-path:url(#SVGID_38_);fill:#4CACD3;}
	.st474{clip-path:url(#SVGID_38_);fill:#4DADD3;}
	.st475{clip-path:url(#SVGID_38_);fill:#4DAED4;}
</style>
<path class="st78" d="M17,1C8.2,1,1,8.2,1,17c0,8.8,7.2,16,16,16c8.8,0,16-7.2,16-16C33,8.2,25.8,1,17,1z"/>
<g>
	<g>
		<polygon class="st79" points="26.9,12.4 24.7,12.4 24.7,10.2 23.6,10.2 23.6,12.4 21.5,12.4 21.5,13.5 23.6,13.5 23.6,15.6 
			24.7,15.6 24.7,13.5 26.9,13.5 		"/>
	</g>
	<g>
		<path class="st79" d="M19.2,19.1c-0.4-0.3-1.4-1-1.4-1.5c0-0.5,0.2-0.8,0.9-1.4c0.8-0.6,1.4-1.5,1.4-2.5c0-1.1-0.5-2.2-1.3-2.7H20
			l1.1-1.1c0,0-3.5,0-4.7,0C14,10,12,11.7,12,13.7c0,2,1.3,3.6,3.6,3.6c0.2,0,0.3,0,0.5,0c-0.1,0.3-0.2,0.6-0.2,0.9
			c0,0.6,0.3,0.9,0.7,1.2c-0.3,0-0.6,0-0.9,0c-2.7,0-4.7,1.9-4.7,3.7c0,1.8,2.3,2.9,5.1,2.9c3.1,0,5-1.8,5-3.6
			C21,21,20.7,20.3,19.2,19.1z M16.5,16.5c-1.3,0-2.5-1.2-2.7-2.9c-0.2-1.7,0.6-2.9,1.9-2.9c1.3,0,2.4,1.4,2.6,3.1
			C18.5,15.5,17.7,16.6,16.5,16.5z M16,25.2c-1.9,0-3.3-1.2-3.3-2.6c0-1.4,1.6-2.6,3.5-2.6c0.4,0,0.9,0.1,1.2,0.2
			c1,0.7,1.9,1.2,2.1,2c0,0.2,0.1,0.3,0.1,0.5C19.5,24.1,18.6,25.2,16,25.2z"/>
	</g>
</g>
</svg>
